<?xml version="1.0" encoding="UTF-8"?>
<gpx xmlns:xsi="http://www.w3.org/2001/XMLSchema-instance" xmlns="http://www.topografix.com/GPX/1/1" xmlns:gpxdata="http://www.cluetrust.com/XML/GPXDATA/1/0" xsi:schemaLocation="http://www.topografix.com/GPX/1/1 http://www.topografix.com/GPX/1/1/gpx.xsd http://www.cluetrust.com/XML/GPXDATA/1/0 http://www.cluetrust.com/Schemas/gpxdata10.xsd" version="1.1" creator="http://ridewithgps.com/">
  <metadata>
    <name>MM2020 10k</name>
    <link href="https://ridewithgps.com/routes/29221279">
      <text>MM2020 10k</text>
    </link>
    <time>2019-01-23T14:03:58Z</time>
  </metadata>
  <trk>
    <name>MM2020 10k</name>
    <trkseg>
      <trkpt lat="13.35281" lon="74.78564">
        <ele>97.1</ele>
      </trkpt>
      <trkpt lat="13.35283" lon="74.78561">
        <ele>97.0</ele>
      </trkpt>
      <trkpt lat="13.35287" lon="74.78556">
        <ele>96.9</ele>
      </trkpt>
      <trkpt lat="13.35288" lon="74.78554">
        <ele>96.8</ele>
      </trkpt>
      <trkpt lat="13.35293" lon="74.78552">
        <ele>96.7</ele>
      </trkpt>
      <trkpt lat="13.353" lon="74.78546">
        <ele>96.4</ele>
      </trkpt>
      <trkpt lat="13.35305" lon="74.7854">
        <ele>96.1</ele>
      </trkpt>
      <trkpt lat="13.35305" lon="74.7854">
        <ele>96.1</ele>
      </trkpt>
      <trkpt lat="13.35306" lon="74.7854">
        <ele>96.1</ele>
      </trkpt>
      <trkpt lat="13.35307" lon="74.7854">
        <ele>96.1</ele>
      </trkpt>
      <trkpt lat="13.35308" lon="74.7854">
        <ele>96.0</ele>
      </trkpt>
      <trkpt lat="13.35309" lon="74.7854">
        <ele>96.0</ele>
      </trkpt>
      <trkpt lat="13.35309" lon="74.78539">
        <ele>96.0</ele>
      </trkpt>
      <trkpt lat="13.3531" lon="74.78539">
        <ele>96.0</ele>
      </trkpt>
      <trkpt lat="13.35329" lon="74.7854">
        <ele>95.5</ele>
      </trkpt>
      <trkpt lat="13.35344" lon="74.7854">
        <ele>95.5</ele>
      </trkpt>
      <trkpt lat="13.35347" lon="74.78539">
        <ele>95.5</ele>
      </trkpt>
      <trkpt lat="13.3535299" lon="74.7854">
        <ele>95.6</ele>
      </trkpt>
      <trkpt lat="13.35371" lon="74.78545">
        <ele>96.1</ele>
      </trkpt>
      <trkpt lat="13.3543" lon="74.78555">
        <ele>96.7</ele>
      </trkpt>
      <trkpt lat="13.35437" lon="74.78554">
        <ele>96.5</ele>
      </trkpt>
      <trkpt lat="13.35439" lon="74.78554">
        <ele>96.4</ele>
      </trkpt>
      <trkpt lat="13.35489" lon="74.78556">
        <ele>95.3</ele>
      </trkpt>
      <trkpt lat="13.35513" lon="74.78557">
        <ele>94.5</ele>
      </trkpt>
      <trkpt lat="13.3554" lon="74.78559">
        <ele>93.5</ele>
      </trkpt>
      <trkpt lat="13.35576" lon="74.78559">
        <ele>92.1</ele>
      </trkpt>
      <trkpt lat="13.35593" lon="74.78559">
        <ele>92.0</ele>
      </trkpt>
      <trkpt lat="13.35618" lon="74.7856">
        <ele>92.6</ele>
      </trkpt>
      <trkpt lat="13.35709" lon="74.78556">
        <ele>93.5</ele>
      </trkpt>
      <trkpt lat="13.35744" lon="74.78555">
        <ele>93.4</ele>
      </trkpt>
      <trkpt lat="13.3576" lon="74.78555">
        <ele>93.3</ele>
      </trkpt>
      <trkpt lat="13.3576" lon="74.78555">
        <ele>93.3</ele>
      </trkpt>
      <trkpt lat="13.35818" lon="74.78556">
        <ele>93.1</ele>
      </trkpt>
      <trkpt lat="13.35856" lon="74.7853">
        <ele>93.1</ele>
      </trkpt>
      <trkpt lat="13.35863" lon="74.78525">
        <ele>93.1</ele>
      </trkpt>
      <trkpt lat="13.35864" lon="74.7852599">
        <ele>93.1</ele>
      </trkpt>
      <trkpt lat="13.35865" lon="74.7852599">
        <ele>93.1</ele>
      </trkpt>
      <trkpt lat="13.35866" lon="74.7852599">
        <ele>93.1</ele>
      </trkpt>
      <trkpt lat="13.35867" lon="74.78527">
        <ele>93.1</ele>
      </trkpt>
      <trkpt lat="13.35868" lon="74.78527">
        <ele>93.1</ele>
      </trkpt>
      <trkpt lat="13.35869" lon="74.78527">
        <ele>93.1</ele>
      </trkpt>
      <trkpt lat="13.3587" lon="74.78527">
        <ele>93.1</ele>
      </trkpt>
      <trkpt lat="13.35871" lon="74.78527">
        <ele>93.1</ele>
      </trkpt>
      <trkpt lat="13.35872" lon="74.78527">
        <ele>93.1</ele>
      </trkpt>
      <trkpt lat="13.35873" lon="74.78527">
        <ele>93.1</ele>
      </trkpt>
      <trkpt lat="13.3587399" lon="74.78527">
        <ele>93.1</ele>
      </trkpt>
      <trkpt lat="13.35875" lon="74.78527">
        <ele>93.1</ele>
      </trkpt>
      <trkpt lat="13.35875" lon="74.7852599">
        <ele>93.1</ele>
      </trkpt>
      <trkpt lat="13.35876" lon="74.7852599">
        <ele>93.1</ele>
      </trkpt>
      <trkpt lat="13.35877" lon="74.78525">
        <ele>93.1</ele>
      </trkpt>
      <trkpt lat="13.35878" lon="74.78525">
        <ele>93.1</ele>
      </trkpt>
      <trkpt lat="13.35878" lon="74.78524">
        <ele>93.1</ele>
      </trkpt>
      <trkpt lat="13.35879" lon="74.78524">
        <ele>93.1</ele>
      </trkpt>
      <trkpt lat="13.35879" lon="74.78523">
        <ele>93.1</ele>
      </trkpt>
      <trkpt lat="13.3588" lon="74.78523">
        <ele>93.1</ele>
      </trkpt>
      <trkpt lat="13.3588" lon="74.78522">
        <ele>93.0</ele>
      </trkpt>
      <trkpt lat="13.35881" lon="74.78522">
        <ele>93.0</ele>
      </trkpt>
      <trkpt lat="13.35881" lon="74.78521">
        <ele>93.0</ele>
      </trkpt>
      <trkpt lat="13.35882" lon="74.78519">
        <ele>92.9</ele>
      </trkpt>
      <trkpt lat="13.35882" lon="74.7851699">
        <ele>92.9</ele>
      </trkpt>
      <trkpt lat="13.35882" lon="74.78515">
        <ele>92.8</ele>
      </trkpt>
      <trkpt lat="13.35882" lon="74.78514">
        <ele>92.8</ele>
      </trkpt>
      <trkpt lat="13.35882" lon="74.78513">
        <ele>92.8</ele>
      </trkpt>
      <trkpt lat="13.35882" lon="74.78512">
        <ele>92.8</ele>
      </trkpt>
      <trkpt lat="13.35882" lon="74.78511">
        <ele>92.7</ele>
      </trkpt>
      <trkpt lat="13.35882" lon="74.7851">
        <ele>92.7</ele>
      </trkpt>
      <trkpt lat="13.35881" lon="74.7851">
        <ele>92.7</ele>
      </trkpt>
      <trkpt lat="13.35881" lon="74.78509">
        <ele>92.7</ele>
      </trkpt>
      <trkpt lat="13.35881" lon="74.7850799">
        <ele>92.6</ele>
      </trkpt>
      <trkpt lat="13.3588" lon="74.78506">
        <ele>92.6</ele>
      </trkpt>
      <trkpt lat="13.35889" lon="74.78495">
        <ele>92.2</ele>
      </trkpt>
      <trkpt lat="13.35904" lon="74.78482">
        <ele>91.4</ele>
      </trkpt>
      <trkpt lat="13.35928" lon="74.78461">
        <ele>89.4</ele>
      </trkpt>
      <trkpt lat="13.3596299" lon="74.7843199">
        <ele>84.8</ele>
      </trkpt>
      <trkpt lat="13.35985" lon="74.78413">
        <ele>81.2</ele>
      </trkpt>
      <trkpt lat="13.35995" lon="74.784">
        <ele>79.2</ele>
      </trkpt>
      <trkpt lat="13.36017" lon="74.78372">
        <ele>76.1</ele>
      </trkpt>
      <trkpt lat="13.36037" lon="74.78348">
        <ele>73.6</ele>
      </trkpt>
      <trkpt lat="13.36038" lon="74.78347">
        <ele>73.5</ele>
      </trkpt>
      <trkpt lat="13.36065" lon="74.78312">
        <ele>69.7</ele>
      </trkpt>
      <trkpt lat="13.36081" lon="74.78294">
        <ele>67.7</ele>
      </trkpt>
      <trkpt lat="13.36084" lon="74.78289">
        <ele>67.3</ele>
      </trkpt>
      <trkpt lat="13.36092" lon="74.78278">
        <ele>66.4</ele>
      </trkpt>
      <trkpt lat="13.36114" lon="74.78259">
        <ele>64.8</ele>
      </trkpt>
      <trkpt lat="13.36136" lon="74.78248">
        <ele>63.8</ele>
      </trkpt>
      <trkpt lat="13.3615" lon="74.78242">
        <ele>63.2</ele>
      </trkpt>
      <trkpt lat="13.36153" lon="74.7824">
        <ele>63.1</ele>
      </trkpt>
      <trkpt lat="13.36175" lon="74.78231">
        <ele>62.3</ele>
      </trkpt>
      <trkpt lat="13.36191" lon="74.7822599">
        <ele>61.6</ele>
      </trkpt>
      <trkpt lat="13.36202" lon="74.78221">
        <ele>61.0</ele>
      </trkpt>
      <trkpt lat="13.36212" lon="74.78213">
        <ele>60.3</ele>
      </trkpt>
      <trkpt lat="13.36222" lon="74.78198">
        <ele>59.1</ele>
      </trkpt>
      <trkpt lat="13.36231" lon="74.78184">
        <ele>58.1</ele>
      </trkpt>
      <trkpt lat="13.36239" lon="74.78165">
        <ele>56.9</ele>
      </trkpt>
      <trkpt lat="13.3626799" lon="74.78107">
        <ele>53.5</ele>
      </trkpt>
      <trkpt lat="13.36284" lon="74.78071">
        <ele>51.3</ele>
      </trkpt>
      <trkpt lat="13.36296" lon="74.78046">
        <ele>49.3</ele>
      </trkpt>
      <trkpt lat="13.36305" lon="74.78017">
        <ele>47.2</ele>
      </trkpt>
      <trkpt lat="13.36305" lon="74.78009">
        <ele>46.6</ele>
      </trkpt>
      <trkpt lat="13.36304" lon="74.78001">
        <ele>46.1</ele>
      </trkpt>
      <trkpt lat="13.36302" lon="74.7799299">
        <ele>45.3</ele>
      </trkpt>
      <trkpt lat="13.363" lon="74.77983">
        <ele>44.3</ele>
      </trkpt>
      <trkpt lat="13.36294" lon="74.77969">
        <ele>43.0</ele>
      </trkpt>
      <trkpt lat="13.36286" lon="74.77953">
        <ele>41.6</ele>
      </trkpt>
      <trkpt lat="13.36278" lon="74.77934">
        <ele>39.9</ele>
      </trkpt>
      <trkpt lat="13.36269" lon="74.7790799">
        <ele>38.2</ele>
      </trkpt>
      <trkpt lat="13.36261" lon="74.77883">
        <ele>37.4</ele>
      </trkpt>
      <trkpt lat="13.3626" lon="74.77867">
        <ele>36.8</ele>
      </trkpt>
      <trkpt lat="13.36259" lon="74.77857">
        <ele>36.4</ele>
      </trkpt>
      <trkpt lat="13.36259" lon="74.77851">
        <ele>36.2</ele>
      </trkpt>
      <trkpt lat="13.36259" lon="74.7783">
        <ele>35.5</ele>
      </trkpt>
      <trkpt lat="13.36261" lon="74.7782">
        <ele>35.3</ele>
      </trkpt>
      <trkpt lat="13.36261" lon="74.77815">
        <ele>35.3</ele>
      </trkpt>
      <trkpt lat="13.3626" lon="74.77799">
        <ele>35.3</ele>
      </trkpt>
      <trkpt lat="13.36259" lon="74.7778699">
        <ele>35.4</ele>
      </trkpt>
      <trkpt lat="13.3625" lon="74.77731">
        <ele>35.5</ele>
      </trkpt>
      <trkpt lat="13.36246" lon="74.77696">
        <ele>34.7</ele>
      </trkpt>
      <trkpt lat="13.36246" lon="74.77688">
        <ele>34.5</ele>
      </trkpt>
      <trkpt lat="13.36247" lon="74.7768">
        <ele>34.3</ele>
      </trkpt>
      <trkpt lat="13.36249" lon="74.77665">
        <ele>34.0</ele>
      </trkpt>
      <trkpt lat="13.36252" lon="74.7765">
        <ele>34.1</ele>
      </trkpt>
      <trkpt lat="13.36263" lon="74.77612">
        <ele>33.9</ele>
      </trkpt>
      <trkpt lat="13.36273" lon="74.77577">
        <ele>33.9</ele>
      </trkpt>
      <trkpt lat="13.3628199" lon="74.77557">
        <ele>33.7</ele>
      </trkpt>
      <trkpt lat="13.36304" lon="74.77518">
        <ele>33.4</ele>
      </trkpt>
      <trkpt lat="13.36312" lon="74.77506">
        <ele>33.4</ele>
      </trkpt>
      <trkpt lat="13.3632" lon="74.77495">
        <ele>33.4</ele>
      </trkpt>
      <trkpt lat="13.36328" lon="74.77487">
        <ele>33.4</ele>
      </trkpt>
      <trkpt lat="13.3634" lon="74.77476">
        <ele>33.6</ele>
      </trkpt>
      <trkpt lat="13.36357" lon="74.7746">
        <ele>34.1</ele>
      </trkpt>
      <trkpt lat="13.36365" lon="74.77455">
        <ele>34.3</ele>
      </trkpt>
      <trkpt lat="13.36374" lon="74.77451">
        <ele>34.4</ele>
      </trkpt>
      <trkpt lat="13.36381" lon="74.7745">
        <ele>34.4</ele>
      </trkpt>
      <trkpt lat="13.36392" lon="74.77449">
        <ele>34.5</ele>
      </trkpt>
      <trkpt lat="13.36403" lon="74.77449">
        <ele>34.5</ele>
      </trkpt>
      <trkpt lat="13.36426" lon="74.77448">
        <ele>34.8</ele>
      </trkpt>
      <trkpt lat="13.36449" lon="74.7745">
        <ele>35.1</ele>
      </trkpt>
      <trkpt lat="13.36469" lon="74.77451">
        <ele>35.3</ele>
      </trkpt>
      <trkpt lat="13.36478" lon="74.7745">
        <ele>35.5</ele>
      </trkpt>
      <trkpt lat="13.36487" lon="74.77449">
        <ele>35.6</ele>
      </trkpt>
      <trkpt lat="13.36495" lon="74.7744699">
        <ele>35.8</ele>
      </trkpt>
      <trkpt lat="13.36501" lon="74.77443">
        <ele>36.1</ele>
      </trkpt>
      <trkpt lat="13.36507" lon="74.77439">
        <ele>36.3</ele>
      </trkpt>
      <trkpt lat="13.36516" lon="74.7743">
        <ele>36.7</ele>
      </trkpt>
      <trkpt lat="13.36567" lon="74.77378">
        <ele>38.5</ele>
      </trkpt>
      <trkpt lat="13.36588" lon="74.77354">
        <ele>39.5</ele>
      </trkpt>
      <trkpt lat="13.36633" lon="74.77252">
        <ele>42.7</ele>
      </trkpt>
      <trkpt lat="13.36644" lon="74.77225">
        <ele>42.7</ele>
      </trkpt>
      <trkpt lat="13.3664799" lon="74.7721399">
        <ele>42.7</ele>
      </trkpt>
      <trkpt lat="13.36649" lon="74.772">
        <ele>42.5</ele>
      </trkpt>
      <trkpt lat="13.3665" lon="74.77185">
        <ele>42.3</ele>
      </trkpt>
      <trkpt lat="13.3663399" lon="74.77145">
        <ele>41.1</ele>
      </trkpt>
      <trkpt lat="13.36629" lon="74.77131">
        <ele>41.0</ele>
      </trkpt>
      <trkpt lat="13.36627" lon="74.77121">
        <ele>41.1</ele>
      </trkpt>
      <trkpt lat="13.36625" lon="74.77108">
        <ele>41.2</ele>
      </trkpt>
      <trkpt lat="13.36625" lon="74.77108">
        <ele>41.2</ele>
      </trkpt>
      <trkpt lat="13.36655" lon="74.7706">
        <ele>42.4</ele>
      </trkpt>
      <trkpt lat="13.36692" lon="74.76995">
        <ele>45.0</ele>
      </trkpt>
      <trkpt lat="13.3670899" lon="74.7696799">
        <ele>44.3</ele>
      </trkpt>
      <trkpt lat="13.36737" lon="74.7692299">
        <ele>44.0</ele>
      </trkpt>
      <trkpt lat="13.36755" lon="74.76894">
        <ele>43.8</ele>
      </trkpt>
      <trkpt lat="13.36761" lon="74.76883">
        <ele>43.8</ele>
      </trkpt>
      <trkpt lat="13.36761" lon="74.76883">
        <ele>43.8</ele>
      </trkpt>
      <trkpt lat="13.36717" lon="74.76866">
        <ele>43.2</ele>
      </trkpt>
      <trkpt lat="13.36655" lon="74.76853">
        <ele>42.0</ele>
      </trkpt>
      <trkpt lat="13.36642" lon="74.76853">
        <ele>41.4</ele>
      </trkpt>
      <trkpt lat="13.36642" lon="74.76853">
        <ele>41.4</ele>
      </trkpt>
      <trkpt lat="13.36567" lon="74.76926">
        <ele>41.7</ele>
      </trkpt>
      <trkpt lat="13.36562" lon="74.7693">
        <ele>41.6</ele>
      </trkpt>
      <trkpt lat="13.3654499" lon="74.76942">
        <ele>41.4</ele>
      </trkpt>
      <trkpt lat="13.36541" lon="74.76942">
        <ele>41.2</ele>
      </trkpt>
      <trkpt lat="13.3653" lon="74.76943">
        <ele>40.9</ele>
      </trkpt>
      <trkpt lat="13.36506" lon="74.76943">
        <ele>40.1</ele>
      </trkpt>
      <trkpt lat="13.36473" lon="74.76939">
        <ele>40.9</ele>
      </trkpt>
      <trkpt lat="13.36445" lon="74.76935">
        <ele>42.0</ele>
      </trkpt>
      <trkpt lat="13.36405" lon="74.76928">
        <ele>43.0</ele>
      </trkpt>
      <trkpt lat="13.36389" lon="74.76925">
        <ele>42.8</ele>
      </trkpt>
      <trkpt lat="13.36342" lon="74.76911">
        <ele>42.0</ele>
      </trkpt>
      <trkpt lat="13.36325" lon="74.76908">
        <ele>41.8</ele>
      </trkpt>
      <trkpt lat="13.36325" lon="74.76908">
        <ele>41.8</ele>
      </trkpt>
      <trkpt lat="13.36319" lon="74.76904">
        <ele>41.7</ele>
      </trkpt>
      <trkpt lat="13.36249" lon="74.76876">
        <ele>41.0</ele>
      </trkpt>
      <trkpt lat="13.36218" lon="74.76868">
        <ele>41.5</ele>
      </trkpt>
      <trkpt lat="13.36156" lon="74.76845">
        <ele>42.7</ele>
      </trkpt>
      <trkpt lat="13.36107" lon="74.76827">
        <ele>42.0</ele>
      </trkpt>
      <trkpt lat="13.3606" lon="74.76806">
        <ele>40.7</ele>
      </trkpt>
      <trkpt lat="13.36045" lon="74.76798">
        <ele>40.4</ele>
      </trkpt>
      <trkpt lat="13.36039" lon="74.76795">
        <ele>40.4</ele>
      </trkpt>
      <trkpt lat="13.36034" lon="74.76792">
        <ele>40.3</ele>
      </trkpt>
      <trkpt lat="13.36026" lon="74.76786">
        <ele>40.2</ele>
      </trkpt>
      <trkpt lat="13.35984" lon="74.76701">
        <ele>36.6</ele>
      </trkpt>
      <trkpt lat="13.35976" lon="74.76684">
        <ele>35.8</ele>
      </trkpt>
      <trkpt lat="13.3597" lon="74.76672">
        <ele>35.3</ele>
      </trkpt>
      <trkpt lat="13.35964" lon="74.7666">
        <ele>35.5</ele>
      </trkpt>
      <trkpt lat="13.35955" lon="74.76642">
        <ele>36.5</ele>
      </trkpt>
      <trkpt lat="13.35943" lon="74.76622">
        <ele>37.9</ele>
      </trkpt>
      <trkpt lat="13.3594" lon="74.7661">
        <ele>38.5</ele>
      </trkpt>
      <trkpt lat="13.35937" lon="74.76594">
        <ele>39.3</ele>
      </trkpt>
      <trkpt lat="13.35934" lon="74.76573">
        <ele>40.1</ele>
      </trkpt>
      <trkpt lat="13.35925" lon="74.76507">
        <ele>41.4</ele>
      </trkpt>
      <trkpt lat="13.35929" lon="74.7647099">
        <ele>40.8</ele>
      </trkpt>
      <trkpt lat="13.3593" lon="74.76456">
        <ele>40.5</ele>
      </trkpt>
      <trkpt lat="13.35934" lon="74.7643499">
        <ele>40.0</ele>
      </trkpt>
      <trkpt lat="13.35939" lon="74.76409">
        <ele>39.7</ele>
      </trkpt>
      <trkpt lat="13.3594" lon="74.76397">
        <ele>39.6</ele>
      </trkpt>
      <trkpt lat="13.35943" lon="74.7637">
        <ele>39.5</ele>
      </trkpt>
      <trkpt lat="13.35945" lon="74.76353">
        <ele>39.4</ele>
      </trkpt>
      <trkpt lat="13.35946" lon="74.76344">
        <ele>39.4</ele>
      </trkpt>
      <trkpt lat="13.35951" lon="74.76319">
        <ele>39.6</ele>
      </trkpt>
      <trkpt lat="13.35951" lon="74.7631">
        <ele>39.7</ele>
      </trkpt>
      <trkpt lat="13.35951" lon="74.76306">
        <ele>39.8</ele>
      </trkpt>
      <trkpt lat="13.35951" lon="74.76301">
        <ele>39.9</ele>
      </trkpt>
      <trkpt lat="13.3595" lon="74.76295">
        <ele>40.0</ele>
      </trkpt>
      <trkpt lat="13.35948" lon="74.76289">
        <ele>40.0</ele>
      </trkpt>
      <trkpt lat="13.35944" lon="74.76278">
        <ele>40.2</ele>
      </trkpt>
      <trkpt lat="13.35923" lon="74.76222">
        <ele>40.3</ele>
      </trkpt>
      <trkpt lat="13.35918" lon="74.76208">
        <ele>40.0</ele>
      </trkpt>
      <trkpt lat="13.35904" lon="74.76137">
        <ele>39.0</ele>
      </trkpt>
      <trkpt lat="13.35898" lon="74.76115">
        <ele>38.8</ele>
      </trkpt>
      <trkpt lat="13.35893" lon="74.76089">
        <ele>38.5</ele>
      </trkpt>
      <trkpt lat="13.3588799" lon="74.76067">
        <ele>37.9</ele>
      </trkpt>
      <trkpt lat="13.35882" lon="74.76039">
        <ele>37.2</ele>
      </trkpt>
      <trkpt lat="13.35872" lon="74.75995">
        <ele>36.4</ele>
      </trkpt>
      <trkpt lat="13.35871" lon="74.7599">
        <ele>36.3</ele>
      </trkpt>
      <trkpt lat="13.35868" lon="74.75972">
        <ele>35.9</ele>
      </trkpt>
      <trkpt lat="13.35866" lon="74.75957">
        <ele>35.5</ele>
      </trkpt>
      <trkpt lat="13.35865" lon="74.75945">
        <ele>35.1</ele>
      </trkpt>
      <trkpt lat="13.35866" lon="74.7593799">
        <ele>35.0</ele>
      </trkpt>
      <trkpt lat="13.35869" lon="74.75918">
        <ele>34.5</ele>
      </trkpt>
      <trkpt lat="13.3587399" lon="74.75883">
        <ele>34.5</ele>
      </trkpt>
      <trkpt lat="13.35876" lon="74.75864">
        <ele>34.5</ele>
      </trkpt>
      <trkpt lat="13.35879" lon="74.75839">
        <ele>34.6</ele>
      </trkpt>
      <trkpt lat="13.35882" lon="74.7582">
        <ele>34.7</ele>
      </trkpt>
      <trkpt lat="13.35882" lon="74.7582">
        <ele>34.7</ele>
      </trkpt>
      <trkpt lat="13.35878" lon="74.75821">
        <ele>34.5</ele>
      </trkpt>
      <trkpt lat="13.35782" lon="74.75833">
        <ele>31.8</ele>
      </trkpt>
      <trkpt lat="13.35779" lon="74.75833">
        <ele>31.7</ele>
      </trkpt>
      <trkpt lat="13.35779" lon="74.75833">
        <ele>31.7</ele>
      </trkpt>
      <trkpt lat="13.3577999" lon="74.75843">
        <ele>31.9</ele>
      </trkpt>
      <trkpt lat="13.3577999" lon="74.75843">
        <ele>31.9</ele>
      </trkpt>
      <trkpt lat="13.35787" lon="74.75894">
        <ele>33.0</ele>
      </trkpt>
      <trkpt lat="13.35792" lon="74.75941">
        <ele>34.2</ele>
      </trkpt>
      <trkpt lat="13.35793" lon="74.75941">
        <ele>34.3</ele>
      </trkpt>
      <trkpt lat="13.3579899" lon="74.76001">
        <ele>36.2</ele>
      </trkpt>
      <trkpt lat="13.35803" lon="74.76049">
        <ele>36.3</ele>
      </trkpt>
      <trkpt lat="13.35804" lon="74.7606">
        <ele>36.3</ele>
      </trkpt>
      <trkpt lat="13.35809" lon="74.76098">
        <ele>36.8</ele>
      </trkpt>
      <trkpt lat="13.35812" lon="74.76114">
        <ele>37.4</ele>
      </trkpt>
      <trkpt lat="13.35812" lon="74.76118">
        <ele>37.5</ele>
      </trkpt>
      <trkpt lat="13.35812" lon="74.76118">
        <ele>37.5</ele>
      </trkpt>
      <trkpt lat="13.3581" lon="74.76123">
        <ele>37.6</ele>
      </trkpt>
      <trkpt lat="13.35808" lon="74.76125">
        <ele>37.6</ele>
      </trkpt>
      <trkpt lat="13.35806" lon="74.7612599">
        <ele>37.5</ele>
      </trkpt>
      <trkpt lat="13.35801" lon="74.76128">
        <ele>37.4</ele>
      </trkpt>
      <trkpt lat="13.35745" lon="74.7614">
        <ele>35.6</ele>
      </trkpt>
      <trkpt lat="13.35741" lon="74.76142">
        <ele>35.5</ele>
      </trkpt>
      <trkpt lat="13.35736" lon="74.7614399">
        <ele>35.4</ele>
      </trkpt>
      <trkpt lat="13.35734" lon="74.76147">
        <ele>35.4</ele>
      </trkpt>
      <trkpt lat="13.35734" lon="74.76147">
        <ele>35.4</ele>
      </trkpt>
      <trkpt lat="13.35733" lon="74.76152">
        <ele>35.4</ele>
      </trkpt>
      <trkpt lat="13.35733" lon="74.76159">
        <ele>35.5</ele>
      </trkpt>
      <trkpt lat="13.35734" lon="74.76173">
        <ele>35.3</ele>
      </trkpt>
      <trkpt lat="13.35735" lon="74.76196">
        <ele>34.3</ele>
      </trkpt>
      <trkpt lat="13.35733" lon="74.76252">
        <ele>31.7</ele>
      </trkpt>
      <trkpt lat="13.35731" lon="74.76315">
        <ele>29.3</ele>
      </trkpt>
      <trkpt lat="13.35731" lon="74.76349">
        <ele>29.5</ele>
      </trkpt>
      <trkpt lat="13.3573" lon="74.76356">
        <ele>29.9</ele>
      </trkpt>
      <trkpt lat="13.3573" lon="74.76361">
        <ele>30.2</ele>
      </trkpt>
      <trkpt lat="13.35728" lon="74.76365">
        <ele>30.4</ele>
      </trkpt>
      <trkpt lat="13.35726" lon="74.7636799">
        <ele>30.5</ele>
      </trkpt>
      <trkpt lat="13.3572399" lon="74.7637">
        <ele>30.6</ele>
      </trkpt>
      <trkpt lat="13.35721" lon="74.76372">
        <ele>30.6</ele>
      </trkpt>
      <trkpt lat="13.3571899" lon="74.76373">
        <ele>30.6</ele>
      </trkpt>
      <trkpt lat="13.35715" lon="74.76374">
        <ele>30.6</ele>
      </trkpt>
      <trkpt lat="13.35712" lon="74.76374">
        <ele>30.5</ele>
      </trkpt>
      <trkpt lat="13.35619" lon="74.76366">
        <ele>28.2</ele>
      </trkpt>
      <trkpt lat="13.35609" lon="74.76365">
        <ele>27.9</ele>
      </trkpt>
      <trkpt lat="13.35531" lon="74.76358">
        <ele>27.2</ele>
      </trkpt>
      <trkpt lat="13.35529" lon="74.76358">
        <ele>27.2</ele>
      </trkpt>
      <trkpt lat="13.35459" lon="74.76356">
        <ele>27.1</ele>
      </trkpt>
      <trkpt lat="13.35457" lon="74.76356">
        <ele>27.1</ele>
      </trkpt>
      <trkpt lat="13.35387" lon="74.76354">
        <ele>26.4</ele>
      </trkpt>
      <trkpt lat="13.35379" lon="74.76354">
        <ele>26.2</ele>
      </trkpt>
      <trkpt lat="13.35376" lon="74.76354">
        <ele>26.1</ele>
      </trkpt>
      <trkpt lat="13.3534" lon="74.76353">
        <ele>25.4</ele>
      </trkpt>
      <trkpt lat="13.35332" lon="74.76352">
        <ele>25.2</ele>
      </trkpt>
      <trkpt lat="13.35323" lon="74.76351">
        <ele>24.8</ele>
      </trkpt>
      <trkpt lat="13.35316" lon="74.76351">
        <ele>24.5</ele>
      </trkpt>
      <trkpt lat="13.35307" lon="74.76352">
        <ele>24.1</ele>
      </trkpt>
      <trkpt lat="13.35294" lon="74.76353">
        <ele>23.6</ele>
      </trkpt>
      <trkpt lat="13.35282" lon="74.76353">
        <ele>23.1</ele>
      </trkpt>
      <trkpt lat="13.35269" lon="74.76353">
        <ele>22.5</ele>
      </trkpt>
      <trkpt lat="13.35251" lon="74.76355">
        <ele>21.8</ele>
      </trkpt>
      <trkpt lat="13.35242" lon="74.76356">
        <ele>21.4</ele>
      </trkpt>
      <trkpt lat="13.35242" lon="74.76356">
        <ele>21.4</ele>
      </trkpt>
      <trkpt lat="13.35227" lon="74.7635899">
        <ele>20.7</ele>
      </trkpt>
      <trkpt lat="13.35207" lon="74.76362">
        <ele>19.6</ele>
      </trkpt>
      <trkpt lat="13.35186" lon="74.76367">
        <ele>18.5</ele>
      </trkpt>
      <trkpt lat="13.35174" lon="74.76369">
        <ele>17.9</ele>
      </trkpt>
      <trkpt lat="13.35164" lon="74.7637">
        <ele>17.4</ele>
      </trkpt>
      <trkpt lat="13.35133" lon="74.76372">
        <ele>17.1</ele>
      </trkpt>
      <trkpt lat="13.35106" lon="74.76374">
        <ele>16.8</ele>
      </trkpt>
      <trkpt lat="13.35071" lon="74.7637699">
        <ele>17.4</ele>
      </trkpt>
      <trkpt lat="13.3505" lon="74.76379">
        <ele>18.9</ele>
      </trkpt>
      <trkpt lat="13.35033" lon="74.7638">
        <ele>20.1</ele>
      </trkpt>
      <trkpt lat="13.35016" lon="74.76379">
        <ele>21.4</ele>
      </trkpt>
      <trkpt lat="13.35004" lon="74.76378">
        <ele>22.2</ele>
      </trkpt>
      <trkpt lat="13.34991" lon="74.76376">
        <ele>22.9</ele>
      </trkpt>
      <trkpt lat="13.34978" lon="74.76378">
        <ele>23.4</ele>
      </trkpt>
      <trkpt lat="13.34967" lon="74.76381">
        <ele>23.9</ele>
      </trkpt>
      <trkpt lat="13.3495" lon="74.76382">
        <ele>24.5</ele>
      </trkpt>
      <trkpt lat="13.3494" lon="74.76382">
        <ele>24.9</ele>
      </trkpt>
      <trkpt lat="13.34935" lon="74.76381">
        <ele>25.1</ele>
      </trkpt>
      <trkpt lat="13.34927" lon="74.76379">
        <ele>25.5</ele>
      </trkpt>
      <trkpt lat="13.34917" lon="74.7637699">
        <ele>25.9</ele>
      </trkpt>
      <trkpt lat="13.34889" lon="74.76373">
        <ele>27.2</ele>
      </trkpt>
      <trkpt lat="13.34738" lon="74.7635899">
        <ele>27.2</ele>
      </trkpt>
      <trkpt lat="13.34738" lon="74.7635899">
        <ele>27.2</ele>
      </trkpt>
      <trkpt lat="13.34726" lon="74.76432">
        <ele>28.8</ele>
      </trkpt>
      <trkpt lat="13.34726" lon="74.76432">
        <ele>28.8</ele>
      </trkpt>
      <trkpt lat="13.34688" lon="74.76423">
        <ele>29.0</ele>
      </trkpt>
      <trkpt lat="13.34659" lon="74.76414">
        <ele>28.8</ele>
      </trkpt>
      <trkpt lat="13.34638" lon="74.76408">
        <ele>28.3</ele>
      </trkpt>
      <trkpt lat="13.34616" lon="74.76403">
        <ele>27.8</ele>
      </trkpt>
      <trkpt lat="13.34616" lon="74.76403">
        <ele>27.8</ele>
      </trkpt>
      <trkpt lat="13.34613" lon="74.7641">
        <ele>28.1</ele>
      </trkpt>
      <trkpt lat="13.34604" lon="74.76446">
        <ele>28.5</ele>
      </trkpt>
      <trkpt lat="13.34592" lon="74.76495">
        <ele>28.4</ele>
      </trkpt>
      <trkpt lat="13.34587" lon="74.7653">
        <ele>28.9</ele>
      </trkpt>
      <trkpt lat="13.34584" lon="74.76549">
        <ele>29.2</ele>
      </trkpt>
      <trkpt lat="13.34576" lon="74.7661399">
        <ele>31.4</ele>
      </trkpt>
      <trkpt lat="13.34567" lon="74.76696">
        <ele>34.3</ele>
      </trkpt>
      <trkpt lat="13.3455999" lon="74.76764">
        <ele>36.0</ele>
      </trkpt>
      <trkpt lat="13.34558" lon="74.76786">
        <ele>36.4</ele>
      </trkpt>
      <trkpt lat="13.34554" lon="74.76831">
        <ele>37.0</ele>
      </trkpt>
      <trkpt lat="13.34552" lon="74.76868">
        <ele>36.6</ele>
      </trkpt>
      <trkpt lat="13.34545" lon="74.76979">
        <ele>32.6</ele>
      </trkpt>
      <trkpt lat="13.34544" lon="74.77009">
        <ele>31.6</ele>
      </trkpt>
      <trkpt lat="13.3454599" lon="74.77032">
        <ele>32.0</ele>
      </trkpt>
      <trkpt lat="13.34552" lon="74.7706199">
        <ele>32.4</ele>
      </trkpt>
      <trkpt lat="13.34552" lon="74.7706199">
        <ele>32.4</ele>
      </trkpt>
      <trkpt lat="13.34559" lon="74.77061">
        <ele>32.2</ele>
      </trkpt>
      <trkpt lat="13.34559" lon="74.77061">
        <ele>32.2</ele>
      </trkpt>
      <trkpt lat="13.34552" lon="74.7706199">
        <ele>32.4</ele>
      </trkpt>
      <trkpt lat="13.34552" lon="74.7706199">
        <ele>32.4</ele>
      </trkpt>
      <trkpt lat="13.34558" lon="74.77104">
        <ele>34.0</ele>
      </trkpt>
      <trkpt lat="13.34564" lon="74.77142">
        <ele>36.3</ele>
      </trkpt>
      <trkpt lat="13.34567" lon="74.7715599">
        <ele>37.1</ele>
      </trkpt>
      <trkpt lat="13.3457" lon="74.77168">
        <ele>37.7</ele>
      </trkpt>
      <trkpt lat="13.34576" lon="74.77181">
        <ele>37.9</ele>
      </trkpt>
      <trkpt lat="13.34582" lon="74.77197">
        <ele>38.2</ele>
      </trkpt>
      <trkpt lat="13.34589" lon="74.7721399">
        <ele>38.7</ele>
      </trkpt>
      <trkpt lat="13.34598" lon="74.7723">
        <ele>39.1</ele>
      </trkpt>
      <trkpt lat="13.34609" lon="74.77248">
        <ele>39.6</ele>
      </trkpt>
      <trkpt lat="13.34619" lon="74.77263">
        <ele>39.8</ele>
      </trkpt>
      <trkpt lat="13.34632" lon="74.77279">
        <ele>39.7</ele>
      </trkpt>
      <trkpt lat="13.34645" lon="74.77294">
        <ele>39.5</ele>
      </trkpt>
      <trkpt lat="13.34669" lon="74.7731699">
        <ele>39.0</ele>
      </trkpt>
      <trkpt lat="13.34681" lon="74.77331">
        <ele>39.2</ele>
      </trkpt>
      <trkpt lat="13.34693" lon="74.77345">
        <ele>38.8</ele>
      </trkpt>
      <trkpt lat="13.34705" lon="74.7736199">
        <ele>38.1</ele>
      </trkpt>
      <trkpt lat="13.34721" lon="74.77387">
        <ele>37.1</ele>
      </trkpt>
      <trkpt lat="13.34737" lon="74.77417">
        <ele>35.8</ele>
      </trkpt>
      <trkpt lat="13.34741" lon="74.77424">
        <ele>35.7</ele>
      </trkpt>
      <trkpt lat="13.34745" lon="74.77435">
        <ele>35.5</ele>
      </trkpt>
      <trkpt lat="13.34751" lon="74.77451">
        <ele>35.2</ele>
      </trkpt>
      <trkpt lat="13.34755" lon="74.77467">
        <ele>35.0</ele>
      </trkpt>
      <trkpt lat="13.34772" lon="74.7753199">
        <ele>35.2</ele>
      </trkpt>
      <trkpt lat="13.34788" lon="74.77596">
        <ele>36.8</ele>
      </trkpt>
      <trkpt lat="13.34791" lon="74.77606">
        <ele>37.4</ele>
      </trkpt>
      <trkpt lat="13.34791" lon="74.77607">
        <ele>37.5</ele>
      </trkpt>
      <trkpt lat="13.34799" lon="74.77639">
        <ele>39.1</ele>
      </trkpt>
      <trkpt lat="13.34806" lon="74.77663">
        <ele>40.2</ele>
      </trkpt>
      <trkpt lat="13.34811" lon="74.77686">
        <ele>40.6</ele>
      </trkpt>
      <trkpt lat="13.34817" lon="74.77722">
        <ele>41.1</ele>
      </trkpt>
      <trkpt lat="13.34825" lon="74.77785">
        <ele>43.0</ele>
      </trkpt>
      <trkpt lat="13.34827" lon="74.77795">
        <ele>43.4</ele>
      </trkpt>
      <trkpt lat="13.34832" lon="74.77847">
        <ele>45.6</ele>
      </trkpt>
      <trkpt lat="13.34835" lon="74.77877">
        <ele>47.0</ele>
      </trkpt>
      <trkpt lat="13.34838" lon="74.77902">
        <ele>48.2</ele>
      </trkpt>
      <trkpt lat="13.34842" lon="74.7794">
        <ele>51.2</ele>
      </trkpt>
      <trkpt lat="13.34848" lon="74.77998">
        <ele>56.8</ele>
      </trkpt>
      <trkpt lat="13.34861" lon="74.78118">
        <ele>64.1</ele>
      </trkpt>
      <trkpt lat="13.34862" lon="74.78136">
        <ele>65.4</ele>
      </trkpt>
      <trkpt lat="13.34863" lon="74.78146">
        <ele>65.9</ele>
      </trkpt>
      <trkpt lat="13.34863" lon="74.78157">
        <ele>66.8</ele>
      </trkpt>
      <trkpt lat="13.34864" lon="74.78173">
        <ele>67.3</ele>
      </trkpt>
      <trkpt lat="13.34862" lon="74.78184">
        <ele>67.9</ele>
      </trkpt>
      <trkpt lat="13.3486" lon="74.78194">
        <ele>68.3</ele>
      </trkpt>
      <trkpt lat="13.34856" lon="74.78205">
        <ele>69.2</ele>
      </trkpt>
      <trkpt lat="13.34854" lon="74.78211">
        <ele>69.5</ele>
      </trkpt>
      <trkpt lat="13.34848" lon="74.78218">
        <ele>70.5</ele>
      </trkpt>
      <trkpt lat="13.3484" lon="74.78228">
        <ele>71.7</ele>
      </trkpt>
      <trkpt lat="13.34832" lon="74.78234">
        <ele>72.7</ele>
      </trkpt>
      <trkpt lat="13.34828" lon="74.78238">
        <ele>73.2</ele>
      </trkpt>
      <trkpt lat="13.3482299" lon="74.78241">
        <ele>73.8</ele>
      </trkpt>
      <trkpt lat="13.34813" lon="74.78248">
        <ele>75.2</ele>
      </trkpt>
      <trkpt lat="13.3480399" lon="74.78256">
        <ele>76.7</ele>
      </trkpt>
      <trkpt lat="13.34796" lon="74.78262">
        <ele>78.1</ele>
      </trkpt>
      <trkpt lat="13.3478999" lon="74.78268">
        <ele>79.2</ele>
      </trkpt>
      <trkpt lat="13.34785" lon="74.78273">
        <ele>80.0</ele>
      </trkpt>
      <trkpt lat="13.34777" lon="74.78281">
        <ele>81.4</ele>
      </trkpt>
      <trkpt lat="13.3477" lon="74.7829">
        <ele>82.6</ele>
      </trkpt>
      <trkpt lat="13.34764" lon="74.78297">
        <ele>83.6</ele>
      </trkpt>
      <trkpt lat="13.34759" lon="74.78303">
        <ele>84.4</ele>
      </trkpt>
      <trkpt lat="13.34755" lon="74.7831099">
        <ele>85.0</ele>
      </trkpt>
      <trkpt lat="13.34751" lon="74.78319">
        <ele>85.7</ele>
      </trkpt>
      <trkpt lat="13.3474799" lon="74.78324">
        <ele>86.0</ele>
      </trkpt>
      <trkpt lat="13.34746" lon="74.7832899">
        <ele>86.1</ele>
      </trkpt>
      <trkpt lat="13.34744" lon="74.78335">
        <ele>86.3</ele>
      </trkpt>
      <trkpt lat="13.3474299" lon="74.7834">
        <ele>86.6</ele>
      </trkpt>
      <trkpt lat="13.34742" lon="74.78345">
        <ele>86.8</ele>
      </trkpt>
      <trkpt lat="13.34741" lon="74.7835">
        <ele>87.0</ele>
      </trkpt>
      <trkpt lat="13.34739" lon="74.7836">
        <ele>87.4</ele>
      </trkpt>
      <trkpt lat="13.34738" lon="74.78365">
        <ele>87.6</ele>
      </trkpt>
      <trkpt lat="13.34737" lon="74.78382">
        <ele>88.2</ele>
      </trkpt>
      <trkpt lat="13.34736" lon="74.78406">
        <ele>89.0</ele>
      </trkpt>
      <trkpt lat="13.34738" lon="74.78409">
        <ele>89.0</ele>
      </trkpt>
      <trkpt lat="13.34739" lon="74.78411">
        <ele>89.1</ele>
      </trkpt>
      <trkpt lat="13.3474" lon="74.78412">
        <ele>89.1</ele>
      </trkpt>
      <trkpt lat="13.3474" lon="74.78413">
        <ele>89.1</ele>
      </trkpt>
      <trkpt lat="13.3474" lon="74.7841399">
        <ele>89.2</ele>
      </trkpt>
      <trkpt lat="13.3474" lon="74.78415">
        <ele>89.2</ele>
      </trkpt>
      <trkpt lat="13.3474" lon="74.78418">
        <ele>89.3</ele>
      </trkpt>
      <trkpt lat="13.34749" lon="74.78428">
        <ele>89.7</ele>
      </trkpt>
      <trkpt lat="13.34752" lon="74.7843">
        <ele>89.8</ele>
      </trkpt>
      <trkpt lat="13.34772" lon="74.78448">
        <ele>90.7</ele>
      </trkpt>
      <trkpt lat="13.34813" lon="74.78482">
        <ele>91.3</ele>
      </trkpt>
      <trkpt lat="13.34827" lon="74.78494">
        <ele>91.1</ele>
      </trkpt>
      <trkpt lat="13.34855" lon="74.7851699">
        <ele>92.4</ele>
      </trkpt>
      <trkpt lat="13.34868" lon="74.78529">
        <ele>93.1</ele>
      </trkpt>
      <trkpt lat="13.3488" lon="74.78539">
        <ele>93.5</ele>
      </trkpt>
      <trkpt lat="13.34893" lon="74.78549">
        <ele>93.8</ele>
      </trkpt>
      <trkpt lat="13.34896" lon="74.78552">
        <ele>93.9</ele>
      </trkpt>
      <trkpt lat="13.34905" lon="74.78558">
        <ele>94.0</ele>
      </trkpt>
      <trkpt lat="13.34915" lon="74.78564">
        <ele>94.0</ele>
      </trkpt>
      <trkpt lat="13.34924" lon="74.78568">
        <ele>94.1</ele>
      </trkpt>
      <trkpt lat="13.3493" lon="74.7857">
        <ele>94.2</ele>
      </trkpt>
      <trkpt lat="13.34936" lon="74.78572">
        <ele>94.3</ele>
      </trkpt>
      <trkpt lat="13.34941" lon="74.78573">
        <ele>94.3</ele>
      </trkpt>
      <trkpt lat="13.34946" lon="74.78573">
        <ele>94.4</ele>
      </trkpt>
      <trkpt lat="13.34952" lon="74.78574">
        <ele>94.5</ele>
      </trkpt>
      <trkpt lat="13.3496" lon="74.78574">
        <ele>94.6</ele>
      </trkpt>
      <trkpt lat="13.34978" lon="74.78573">
        <ele>94.8</ele>
      </trkpt>
      <trkpt lat="13.35003" lon="74.78571">
        <ele>95.2</ele>
      </trkpt>
      <trkpt lat="13.35023" lon="74.7857">
        <ele>95.6</ele>
      </trkpt>
      <trkpt lat="13.3505299" lon="74.78569">
        <ele>96.2</ele>
      </trkpt>
      <trkpt lat="13.35076" lon="74.7857">
        <ele>96.7</ele>
      </trkpt>
      <trkpt lat="13.35089" lon="74.78572">
        <ele>96.9</ele>
      </trkpt>
      <trkpt lat="13.351" lon="74.7857499">
        <ele>97.1</ele>
      </trkpt>
      <trkpt lat="13.35108" lon="74.78578">
        <ele>97.2</ele>
      </trkpt>
      <trkpt lat="13.35116" lon="74.78582">
        <ele>97.4</ele>
      </trkpt>
      <trkpt lat="13.35124" lon="74.78586">
        <ele>97.6</ele>
      </trkpt>
      <trkpt lat="13.35129" lon="74.7859">
        <ele>97.7</ele>
      </trkpt>
      <trkpt lat="13.35148" lon="74.7860199">
        <ele>98.0</ele>
      </trkpt>
      <trkpt lat="13.35192" lon="74.78633">
        <ele>97.9</ele>
      </trkpt>
      <trkpt lat="13.35218" lon="74.7865">
        <ele>97.9</ele>
      </trkpt>
      <trkpt lat="13.35218" lon="74.78651">
        <ele>97.9</ele>
      </trkpt>
      <trkpt lat="13.35219" lon="74.7865">
        <ele>97.9</ele>
      </trkpt>
      <trkpt lat="13.35226" lon="74.78641">
        <ele>97.8</ele>
      </trkpt>
      <trkpt lat="13.35242" lon="74.78623">
        <ele>97.5</ele>
      </trkpt>
      <trkpt lat="13.35274" lon="74.7857499">
        <ele>97.2</ele>
      </trkpt>
    </trkseg>
  </trk>
</gpx>
