<?xml version="1.0" encoding="UTF-8"?>
<gpx xmlns:xsi="http://www.w3.org/2001/XMLSchema-instance" xmlns="http://www.topografix.com/GPX/1/1" xmlns:gpxdata="http://www.cluetrust.com/XML/GPXDATA/1/0" xsi:schemaLocation="http://www.topografix.com/GPX/1/1 http://www.topografix.com/GPX/1/1/gpx.xsd http://www.cluetrust.com/XML/GPXDATA/1/0 http://www.cluetrust.com/Schemas/gpxdata10.xsd" version="1.1" creator="http://ridewithgps.com/">
  <metadata>
    <name>MM2020 21k</name>
    <link href="https://ridewithgps.com/routes/29322229">
      <text>MM2020 21k</text>
    </link>
    <time>2019-02-13T21:06:34Z</time>
  </metadata>
  <trk>
    <name>MM2020 21k</name>
    <trkseg>
      <trkpt lat="13.35285" lon="74.78559">
        <ele>97.0</ele>
      </trkpt>
      <trkpt lat="13.35288" lon="74.78554">
        <ele>96.8</ele>
      </trkpt>
      <trkpt lat="13.35293" lon="74.78552">
        <ele>96.7</ele>
      </trkpt>
      <trkpt lat="13.353" lon="74.78546">
        <ele>96.4</ele>
      </trkpt>
      <trkpt lat="13.35305" lon="74.7854">
        <ele>96.1</ele>
      </trkpt>
      <trkpt lat="13.35305" lon="74.7854">
        <ele>96.1</ele>
      </trkpt>
      <trkpt lat="13.35308" lon="74.7854">
        <ele>96.0</ele>
      </trkpt>
      <trkpt lat="13.3531" lon="74.78539">
        <ele>96.0</ele>
      </trkpt>
      <trkpt lat="13.35329" lon="74.7854">
        <ele>95.5</ele>
      </trkpt>
      <trkpt lat="13.35344" lon="74.7854">
        <ele>95.5</ele>
      </trkpt>
      <trkpt lat="13.35347" lon="74.78539">
        <ele>95.5</ele>
      </trkpt>
      <trkpt lat="13.3535299" lon="74.7854">
        <ele>95.6</ele>
      </trkpt>
      <trkpt lat="13.35371" lon="74.78545">
        <ele>96.1</ele>
      </trkpt>
      <trkpt lat="13.3543" lon="74.78555">
        <ele>96.7</ele>
      </trkpt>
      <trkpt lat="13.35437" lon="74.78554">
        <ele>96.5</ele>
      </trkpt>
      <trkpt lat="13.35439" lon="74.78554">
        <ele>96.4</ele>
      </trkpt>
      <trkpt lat="13.35489" lon="74.78556">
        <ele>95.3</ele>
      </trkpt>
      <trkpt lat="13.3554" lon="74.78559">
        <ele>93.5</ele>
      </trkpt>
      <trkpt lat="13.35576" lon="74.78559">
        <ele>92.1</ele>
      </trkpt>
      <trkpt lat="13.35593" lon="74.78559">
        <ele>92.0</ele>
      </trkpt>
      <trkpt lat="13.35618" lon="74.7856">
        <ele>92.6</ele>
      </trkpt>
      <trkpt lat="13.35623" lon="74.7856">
        <ele>92.7</ele>
      </trkpt>
      <trkpt lat="13.35709" lon="74.78556">
        <ele>93.5</ele>
      </trkpt>
      <trkpt lat="13.35744" lon="74.78555">
        <ele>93.4</ele>
      </trkpt>
      <trkpt lat="13.3576" lon="74.78555">
        <ele>93.3</ele>
      </trkpt>
      <trkpt lat="13.3576" lon="74.78555">
        <ele>93.3</ele>
      </trkpt>
      <trkpt lat="13.35818" lon="74.78556">
        <ele>93.1</ele>
      </trkpt>
      <trkpt lat="13.35856" lon="74.7853">
        <ele>93.1</ele>
      </trkpt>
      <trkpt lat="13.35863" lon="74.78525">
        <ele>93.1</ele>
      </trkpt>
      <trkpt lat="13.35864" lon="74.7852599">
        <ele>93.1</ele>
      </trkpt>
      <trkpt lat="13.35865" lon="74.7852599">
        <ele>93.1</ele>
      </trkpt>
      <trkpt lat="13.35866" lon="74.7852599">
        <ele>93.1</ele>
      </trkpt>
      <trkpt lat="13.35867" lon="74.78527">
        <ele>93.1</ele>
      </trkpt>
      <trkpt lat="13.35868" lon="74.78527">
        <ele>93.1</ele>
      </trkpt>
      <trkpt lat="13.35869" lon="74.78527">
        <ele>93.1</ele>
      </trkpt>
      <trkpt lat="13.3587" lon="74.78527">
        <ele>93.1</ele>
      </trkpt>
      <trkpt lat="13.35871" lon="74.78527">
        <ele>93.1</ele>
      </trkpt>
      <trkpt lat="13.35872" lon="74.78527">
        <ele>93.1</ele>
      </trkpt>
      <trkpt lat="13.35873" lon="74.78527">
        <ele>93.1</ele>
      </trkpt>
      <trkpt lat="13.3587399" lon="74.78527">
        <ele>93.1</ele>
      </trkpt>
      <trkpt lat="13.35875" lon="74.78527">
        <ele>93.1</ele>
      </trkpt>
      <trkpt lat="13.35875" lon="74.7852599">
        <ele>93.1</ele>
      </trkpt>
      <trkpt lat="13.35876" lon="74.7852599">
        <ele>93.1</ele>
      </trkpt>
      <trkpt lat="13.35877" lon="74.78525">
        <ele>93.1</ele>
      </trkpt>
      <trkpt lat="13.35878" lon="74.78525">
        <ele>93.1</ele>
      </trkpt>
      <trkpt lat="13.35878" lon="74.78524">
        <ele>93.1</ele>
      </trkpt>
      <trkpt lat="13.35879" lon="74.78524">
        <ele>93.1</ele>
      </trkpt>
      <trkpt lat="13.35879" lon="74.78523">
        <ele>93.1</ele>
      </trkpt>
      <trkpt lat="13.3588" lon="74.78523">
        <ele>93.1</ele>
      </trkpt>
      <trkpt lat="13.3588" lon="74.78522">
        <ele>93.0</ele>
      </trkpt>
      <trkpt lat="13.35881" lon="74.78522">
        <ele>93.0</ele>
      </trkpt>
      <trkpt lat="13.35881" lon="74.78521">
        <ele>93.0</ele>
      </trkpt>
      <trkpt lat="13.35882" lon="74.78519">
        <ele>92.9</ele>
      </trkpt>
      <trkpt lat="13.35882" lon="74.7851699">
        <ele>92.9</ele>
      </trkpt>
      <trkpt lat="13.35898" lon="74.78502">
        <ele>92.3</ele>
      </trkpt>
      <trkpt lat="13.35938" lon="74.7847">
        <ele>89.3</ele>
      </trkpt>
      <trkpt lat="13.35967" lon="74.78447">
        <ele>85.7</ele>
      </trkpt>
      <trkpt lat="13.3597" lon="74.78443">
        <ele>85.2</ele>
      </trkpt>
      <trkpt lat="13.35981" lon="74.78435">
        <ele>83.6</ele>
      </trkpt>
      <trkpt lat="13.3599599" lon="74.78421">
        <ele>80.8</ele>
      </trkpt>
      <trkpt lat="13.36003" lon="74.78413">
        <ele>79.6</ele>
      </trkpt>
      <trkpt lat="13.36013" lon="74.784">
        <ele>78.2</ele>
      </trkpt>
      <trkpt lat="13.36042" lon="74.78359">
        <ele>74.2</ele>
      </trkpt>
      <trkpt lat="13.36046" lon="74.78353">
        <ele>73.6</ele>
      </trkpt>
      <trkpt lat="13.36047" lon="74.78352">
        <ele>73.5</ele>
      </trkpt>
      <trkpt lat="13.36073" lon="74.78318">
        <ele>70.0</ele>
      </trkpt>
      <trkpt lat="13.36088" lon="74.78301">
        <ele>68.3</ele>
      </trkpt>
      <trkpt lat="13.36096" lon="74.78292">
        <ele>67.6</ele>
      </trkpt>
      <trkpt lat="13.36103" lon="74.78285">
        <ele>67.0</ele>
      </trkpt>
      <trkpt lat="13.36115" lon="74.78274">
        <ele>66.1</ele>
      </trkpt>
      <trkpt lat="13.36124" lon="74.78267">
        <ele>65.5</ele>
      </trkpt>
      <trkpt lat="13.36133" lon="74.78261">
        <ele>65.0</ele>
      </trkpt>
      <trkpt lat="13.36144" lon="74.78255">
        <ele>64.5</ele>
      </trkpt>
      <trkpt lat="13.36155" lon="74.78249">
        <ele>63.9</ele>
      </trkpt>
      <trkpt lat="13.36164" lon="74.78246">
        <ele>63.7</ele>
      </trkpt>
      <trkpt lat="13.36182" lon="74.78238">
        <ele>62.7</ele>
      </trkpt>
      <trkpt lat="13.36183" lon="74.78238">
        <ele>62.7</ele>
      </trkpt>
      <trkpt lat="13.36205" lon="74.7823">
        <ele>61.6</ele>
      </trkpt>
      <trkpt lat="13.36212" lon="74.78227">
        <ele>61.3</ele>
      </trkpt>
      <trkpt lat="13.36216" lon="74.78223">
        <ele>60.9</ele>
      </trkpt>
      <trkpt lat="13.36223" lon="74.78216">
        <ele>60.3</ele>
      </trkpt>
      <trkpt lat="13.36229" lon="74.7820799">
        <ele>59.7</ele>
      </trkpt>
      <trkpt lat="13.36236" lon="74.78195">
        <ele>58.8</ele>
      </trkpt>
      <trkpt lat="13.36246" lon="74.78178">
        <ele>57.7</ele>
      </trkpt>
      <trkpt lat="13.36255" lon="74.78158">
        <ele>56.2</ele>
      </trkpt>
      <trkpt lat="13.36278" lon="74.7811">
        <ele>53.2</ele>
      </trkpt>
      <trkpt lat="13.36316" lon="74.78019">
        <ele>47.2</ele>
      </trkpt>
      <trkpt lat="13.36316" lon="74.78007">
        <ele>46.5</ele>
      </trkpt>
      <trkpt lat="13.3631499" lon="74.78">
        <ele>46.0</ele>
      </trkpt>
      <trkpt lat="13.36311" lon="74.77986">
        <ele>44.6</ele>
      </trkpt>
      <trkpt lat="13.36307" lon="74.77976">
        <ele>43.6</ele>
      </trkpt>
      <trkpt lat="13.3630099" lon="74.77963">
        <ele>42.4</ele>
      </trkpt>
      <trkpt lat="13.36294" lon="74.77948">
        <ele>41.0</ele>
      </trkpt>
      <trkpt lat="13.3628199" lon="74.77919">
        <ele>38.5</ele>
      </trkpt>
      <trkpt lat="13.36273" lon="74.77896">
        <ele>37.5</ele>
      </trkpt>
      <trkpt lat="13.3626799" lon="74.77868">
        <ele>36.4</ele>
      </trkpt>
      <trkpt lat="13.36266" lon="74.77844">
        <ele>35.5</ele>
      </trkpt>
      <trkpt lat="13.36265" lon="74.7783">
        <ele>35.1</ele>
      </trkpt>
      <trkpt lat="13.36261" lon="74.7782">
        <ele>35.3</ele>
      </trkpt>
      <trkpt lat="13.3626" lon="74.77799">
        <ele>35.3</ele>
      </trkpt>
      <trkpt lat="13.36259" lon="74.7778699">
        <ele>35.4</ele>
      </trkpt>
      <trkpt lat="13.3625" lon="74.77731">
        <ele>35.5</ele>
      </trkpt>
      <trkpt lat="13.36246" lon="74.77696">
        <ele>34.7</ele>
      </trkpt>
      <trkpt lat="13.36246" lon="74.77688">
        <ele>34.5</ele>
      </trkpt>
      <trkpt lat="13.36247" lon="74.7768">
        <ele>34.3</ele>
      </trkpt>
      <trkpt lat="13.36249" lon="74.77666">
        <ele>34.0</ele>
      </trkpt>
      <trkpt lat="13.36252" lon="74.7765">
        <ele>34.1</ele>
      </trkpt>
      <trkpt lat="13.36258" lon="74.77628">
        <ele>34.0</ele>
      </trkpt>
      <trkpt lat="13.36263" lon="74.77613">
        <ele>33.9</ele>
      </trkpt>
      <trkpt lat="13.36273" lon="74.77577">
        <ele>33.9</ele>
      </trkpt>
      <trkpt lat="13.3628199" lon="74.77557">
        <ele>33.7</ele>
      </trkpt>
      <trkpt lat="13.36304" lon="74.77518">
        <ele>33.4</ele>
      </trkpt>
      <trkpt lat="13.36312" lon="74.77506">
        <ele>33.4</ele>
      </trkpt>
      <trkpt lat="13.3632" lon="74.77495">
        <ele>33.4</ele>
      </trkpt>
      <trkpt lat="13.36328" lon="74.77487">
        <ele>33.4</ele>
      </trkpt>
      <trkpt lat="13.3634" lon="74.77476">
        <ele>33.6</ele>
      </trkpt>
      <trkpt lat="13.36357" lon="74.7746">
        <ele>34.1</ele>
      </trkpt>
      <trkpt lat="13.36365" lon="74.77455">
        <ele>34.3</ele>
      </trkpt>
      <trkpt lat="13.36374" lon="74.77451">
        <ele>34.4</ele>
      </trkpt>
      <trkpt lat="13.36381" lon="74.7745">
        <ele>34.4</ele>
      </trkpt>
      <trkpt lat="13.36392" lon="74.77449">
        <ele>34.5</ele>
      </trkpt>
      <trkpt lat="13.36403" lon="74.77449">
        <ele>34.5</ele>
      </trkpt>
      <trkpt lat="13.36426" lon="74.77448">
        <ele>34.8</ele>
      </trkpt>
      <trkpt lat="13.36449" lon="74.7745">
        <ele>35.1</ele>
      </trkpt>
      <trkpt lat="13.36469" lon="74.77451">
        <ele>35.3</ele>
      </trkpt>
      <trkpt lat="13.36478" lon="74.7745">
        <ele>35.5</ele>
      </trkpt>
      <trkpt lat="13.36487" lon="74.77449">
        <ele>35.6</ele>
      </trkpt>
      <trkpt lat="13.36495" lon="74.7744699">
        <ele>35.8</ele>
      </trkpt>
      <trkpt lat="13.36501" lon="74.77443">
        <ele>36.1</ele>
      </trkpt>
      <trkpt lat="13.36507" lon="74.77439">
        <ele>36.3</ele>
      </trkpt>
      <trkpt lat="13.36516" lon="74.7743">
        <ele>36.7</ele>
      </trkpt>
      <trkpt lat="13.36567" lon="74.77378">
        <ele>38.5</ele>
      </trkpt>
      <trkpt lat="13.36588" lon="74.77354">
        <ele>39.5</ele>
      </trkpt>
      <trkpt lat="13.36633" lon="74.77252">
        <ele>42.7</ele>
      </trkpt>
      <trkpt lat="13.36644" lon="74.77225">
        <ele>42.7</ele>
      </trkpt>
      <trkpt lat="13.3664799" lon="74.7721399">
        <ele>42.7</ele>
      </trkpt>
      <trkpt lat="13.36649" lon="74.772">
        <ele>42.5</ele>
      </trkpt>
      <trkpt lat="13.3665" lon="74.77185">
        <ele>42.3</ele>
      </trkpt>
      <trkpt lat="13.3663399" lon="74.77145">
        <ele>41.1</ele>
      </trkpt>
      <trkpt lat="13.36629" lon="74.77131">
        <ele>41.0</ele>
      </trkpt>
      <trkpt lat="13.36627" lon="74.77121">
        <ele>41.1</ele>
      </trkpt>
      <trkpt lat="13.36625" lon="74.77108">
        <ele>41.2</ele>
      </trkpt>
      <trkpt lat="13.36625" lon="74.77108">
        <ele>41.2</ele>
      </trkpt>
      <trkpt lat="13.36655" lon="74.7706">
        <ele>42.4</ele>
      </trkpt>
      <trkpt lat="13.36692" lon="74.76995">
        <ele>45.0</ele>
      </trkpt>
      <trkpt lat="13.3670899" lon="74.7696799">
        <ele>44.3</ele>
      </trkpt>
      <trkpt lat="13.36755" lon="74.76894">
        <ele>43.8</ele>
      </trkpt>
      <trkpt lat="13.36761" lon="74.76883">
        <ele>43.8</ele>
      </trkpt>
      <trkpt lat="13.36761" lon="74.76883">
        <ele>43.8</ele>
      </trkpt>
      <trkpt lat="13.36741" lon="74.76875">
        <ele>43.4</ele>
      </trkpt>
      <trkpt lat="13.36717" lon="74.76866">
        <ele>43.2</ele>
      </trkpt>
      <trkpt lat="13.36655" lon="74.76853">
        <ele>42.0</ele>
      </trkpt>
      <trkpt lat="13.36642" lon="74.76853">
        <ele>41.4</ele>
      </trkpt>
      <trkpt lat="13.36642" lon="74.76853">
        <ele>41.4</ele>
      </trkpt>
      <trkpt lat="13.36562" lon="74.7693">
        <ele>41.6</ele>
      </trkpt>
      <trkpt lat="13.3654499" lon="74.76942">
        <ele>41.4</ele>
      </trkpt>
      <trkpt lat="13.36541" lon="74.76942">
        <ele>41.2</ele>
      </trkpt>
      <trkpt lat="13.3653" lon="74.76943">
        <ele>40.9</ele>
      </trkpt>
      <trkpt lat="13.36506" lon="74.76943">
        <ele>40.1</ele>
      </trkpt>
      <trkpt lat="13.36473" lon="74.76939">
        <ele>40.9</ele>
      </trkpt>
      <trkpt lat="13.36445" lon="74.76935">
        <ele>42.0</ele>
      </trkpt>
      <trkpt lat="13.36405" lon="74.76928">
        <ele>43.0</ele>
      </trkpt>
      <trkpt lat="13.36389" lon="74.76925">
        <ele>42.8</ele>
      </trkpt>
      <trkpt lat="13.36342" lon="74.76911">
        <ele>42.0</ele>
      </trkpt>
      <trkpt lat="13.36325" lon="74.76908">
        <ele>41.8</ele>
      </trkpt>
      <trkpt lat="13.36325" lon="74.76908">
        <ele>41.8</ele>
      </trkpt>
      <trkpt lat="13.36319" lon="74.76904">
        <ele>41.7</ele>
      </trkpt>
      <trkpt lat="13.36249" lon="74.76876">
        <ele>41.0</ele>
      </trkpt>
      <trkpt lat="13.36218" lon="74.76868">
        <ele>41.5</ele>
      </trkpt>
      <trkpt lat="13.36156" lon="74.76845">
        <ele>42.7</ele>
      </trkpt>
      <trkpt lat="13.36107" lon="74.76827">
        <ele>42.0</ele>
      </trkpt>
      <trkpt lat="13.3606" lon="74.76806">
        <ele>40.7</ele>
      </trkpt>
      <trkpt lat="13.36045" lon="74.76798">
        <ele>40.4</ele>
      </trkpt>
      <trkpt lat="13.36039" lon="74.76795">
        <ele>40.4</ele>
      </trkpt>
      <trkpt lat="13.36034" lon="74.76792">
        <ele>40.3</ele>
      </trkpt>
      <trkpt lat="13.36026" lon="74.76786">
        <ele>40.2</ele>
      </trkpt>
      <trkpt lat="13.35984" lon="74.76701">
        <ele>36.6</ele>
      </trkpt>
      <trkpt lat="13.35976" lon="74.76684">
        <ele>35.8</ele>
      </trkpt>
      <trkpt lat="13.3597" lon="74.76672">
        <ele>35.3</ele>
      </trkpt>
      <trkpt lat="13.35964" lon="74.7666">
        <ele>35.5</ele>
      </trkpt>
      <trkpt lat="13.35955" lon="74.76642">
        <ele>36.5</ele>
      </trkpt>
      <trkpt lat="13.35943" lon="74.76622">
        <ele>37.9</ele>
      </trkpt>
      <trkpt lat="13.3594" lon="74.7661">
        <ele>38.5</ele>
      </trkpt>
      <trkpt lat="13.35937" lon="74.76594">
        <ele>39.3</ele>
      </trkpt>
      <trkpt lat="13.35934" lon="74.76573">
        <ele>40.1</ele>
      </trkpt>
      <trkpt lat="13.35925" lon="74.76507">
        <ele>41.4</ele>
      </trkpt>
      <trkpt lat="13.35929" lon="74.7647099">
        <ele>40.8</ele>
      </trkpt>
      <trkpt lat="13.3593" lon="74.76456">
        <ele>40.5</ele>
      </trkpt>
      <trkpt lat="13.35934" lon="74.7643499">
        <ele>40.0</ele>
      </trkpt>
      <trkpt lat="13.35939" lon="74.76409">
        <ele>39.7</ele>
      </trkpt>
      <trkpt lat="13.3594" lon="74.76397">
        <ele>39.6</ele>
      </trkpt>
      <trkpt lat="13.35942" lon="74.7637699">
        <ele>39.5</ele>
      </trkpt>
      <trkpt lat="13.35942" lon="74.7637699">
        <ele>39.5</ele>
      </trkpt>
      <trkpt lat="13.35943" lon="74.7637">
        <ele>39.5</ele>
      </trkpt>
      <trkpt lat="13.35945" lon="74.76353">
        <ele>39.4</ele>
      </trkpt>
      <trkpt lat="13.35946" lon="74.76344">
        <ele>39.4</ele>
      </trkpt>
      <trkpt lat="13.35951" lon="74.76319">
        <ele>39.6</ele>
      </trkpt>
      <trkpt lat="13.35951" lon="74.7631">
        <ele>39.7</ele>
      </trkpt>
      <trkpt lat="13.35951" lon="74.76306">
        <ele>39.8</ele>
      </trkpt>
      <trkpt lat="13.35951" lon="74.76301">
        <ele>39.9</ele>
      </trkpt>
      <trkpt lat="13.3595" lon="74.76295">
        <ele>40.0</ele>
      </trkpt>
      <trkpt lat="13.35948" lon="74.76289">
        <ele>40.0</ele>
      </trkpt>
      <trkpt lat="13.35944" lon="74.76278">
        <ele>40.2</ele>
      </trkpt>
      <trkpt lat="13.35923" lon="74.76222">
        <ele>40.3</ele>
      </trkpt>
      <trkpt lat="13.35918" lon="74.76208">
        <ele>40.0</ele>
      </trkpt>
      <trkpt lat="13.35904" lon="74.76137">
        <ele>39.0</ele>
      </trkpt>
      <trkpt lat="13.35898" lon="74.76115">
        <ele>38.8</ele>
      </trkpt>
      <trkpt lat="13.35893" lon="74.76089">
        <ele>38.5</ele>
      </trkpt>
      <trkpt lat="13.3588799" lon="74.76067">
        <ele>37.9</ele>
      </trkpt>
      <trkpt lat="13.35882" lon="74.76039">
        <ele>37.2</ele>
      </trkpt>
      <trkpt lat="13.35872" lon="74.75995">
        <ele>36.4</ele>
      </trkpt>
      <trkpt lat="13.35871" lon="74.7599">
        <ele>36.3</ele>
      </trkpt>
      <trkpt lat="13.35868" lon="74.75972">
        <ele>35.9</ele>
      </trkpt>
      <trkpt lat="13.35867" lon="74.75961">
        <ele>35.6</ele>
      </trkpt>
      <trkpt lat="13.35866" lon="74.75957">
        <ele>35.5</ele>
      </trkpt>
      <trkpt lat="13.35865" lon="74.75945">
        <ele>35.1</ele>
      </trkpt>
      <trkpt lat="13.35866" lon="74.7593799">
        <ele>35.0</ele>
      </trkpt>
      <trkpt lat="13.35869" lon="74.75918">
        <ele>34.5</ele>
      </trkpt>
      <trkpt lat="13.3587399" lon="74.75883">
        <ele>34.5</ele>
      </trkpt>
      <trkpt lat="13.35876" lon="74.75864">
        <ele>34.5</ele>
      </trkpt>
      <trkpt lat="13.35879" lon="74.75839">
        <ele>34.6</ele>
      </trkpt>
      <trkpt lat="13.35882" lon="74.7582">
        <ele>34.7</ele>
      </trkpt>
      <trkpt lat="13.35882" lon="74.7582">
        <ele>34.7</ele>
      </trkpt>
      <trkpt lat="13.35794" lon="74.75832">
        <ele>32.1</ele>
      </trkpt>
      <trkpt lat="13.35794" lon="74.75832">
        <ele>32.1</ele>
      </trkpt>
      <trkpt lat="13.35782" lon="74.75833">
        <ele>31.8</ele>
      </trkpt>
      <trkpt lat="13.35779" lon="74.75833">
        <ele>31.7</ele>
      </trkpt>
      <trkpt lat="13.35779" lon="74.75833">
        <ele>31.7</ele>
      </trkpt>
      <trkpt lat="13.35772" lon="74.75779">
        <ele>31.5</ele>
      </trkpt>
      <trkpt lat="13.35768" lon="74.75744">
        <ele>31.4</ele>
      </trkpt>
      <trkpt lat="13.3576599" lon="74.75722">
        <ele>31.3</ele>
      </trkpt>
      <trkpt lat="13.3576" lon="74.75672">
        <ele>31.0</ele>
      </trkpt>
      <trkpt lat="13.35757" lon="74.75646">
        <ele>30.3</ele>
      </trkpt>
      <trkpt lat="13.35754" lon="74.7562">
        <ele>29.4</ele>
      </trkpt>
      <trkpt lat="13.3575" lon="74.75583">
        <ele>28.0</ele>
      </trkpt>
      <trkpt lat="13.3575" lon="74.75558">
        <ele>27.7</ele>
      </trkpt>
      <trkpt lat="13.35751" lon="74.7550399">
        <ele>27.1</ele>
      </trkpt>
      <trkpt lat="13.35751" lon="74.75499">
        <ele>27.0</ele>
      </trkpt>
      <trkpt lat="13.3575" lon="74.75485">
        <ele>26.8</ele>
      </trkpt>
      <trkpt lat="13.35751" lon="74.75474">
        <ele>26.7</ele>
      </trkpt>
      <trkpt lat="13.35753" lon="74.75451">
        <ele>26.5</ele>
      </trkpt>
      <trkpt lat="13.35751" lon="74.75406">
        <ele>26.0</ele>
      </trkpt>
      <trkpt lat="13.35743" lon="74.7526199">
        <ele>24.0</ele>
      </trkpt>
      <trkpt lat="13.35742" lon="74.75254">
        <ele>23.8</ele>
      </trkpt>
      <trkpt lat="13.35739" lon="74.75244">
        <ele>23.3</ele>
      </trkpt>
      <trkpt lat="13.35733" lon="74.75223">
        <ele>22.2</ele>
      </trkpt>
      <trkpt lat="13.35722" lon="74.75196">
        <ele>20.8</ele>
      </trkpt>
      <trkpt lat="13.35718" lon="74.75187">
        <ele>20.4</ele>
      </trkpt>
      <trkpt lat="13.3571" lon="74.75164">
        <ele>19.4</ele>
      </trkpt>
      <trkpt lat="13.35693" lon="74.75112">
        <ele>17.3</ele>
      </trkpt>
      <trkpt lat="13.35692" lon="74.75109">
        <ele>17.2</ele>
      </trkpt>
      <trkpt lat="13.35692" lon="74.75108">
        <ele>17.1</ele>
      </trkpt>
      <trkpt lat="13.3569099" lon="74.75105">
        <ele>17.0</ele>
      </trkpt>
      <trkpt lat="13.35687" lon="74.7510099">
        <ele>16.7</ele>
      </trkpt>
      <trkpt lat="13.35683" lon="74.75097">
        <ele>16.3</ele>
      </trkpt>
      <trkpt lat="13.3568" lon="74.75091">
        <ele>16.0</ele>
      </trkpt>
      <trkpt lat="13.3567" lon="74.75052">
        <ele>14.8</ele>
      </trkpt>
      <trkpt lat="13.35668" lon="74.75043">
        <ele>14.6</ele>
      </trkpt>
      <trkpt lat="13.35666" lon="74.75034">
        <ele>14.4</ele>
      </trkpt>
      <trkpt lat="13.35666" lon="74.75034">
        <ele>14.4</ele>
      </trkpt>
      <trkpt lat="13.35697" lon="74.75021">
        <ele>15.7</ele>
      </trkpt>
      <trkpt lat="13.35779" lon="74.74987">
        <ele>18.0</ele>
      </trkpt>
      <trkpt lat="13.35791" lon="74.74982">
        <ele>18.0</ele>
      </trkpt>
      <trkpt lat="13.35805" lon="74.74978">
        <ele>18.0</ele>
      </trkpt>
      <trkpt lat="13.35807" lon="74.74978">
        <ele>18.0</ele>
      </trkpt>
      <trkpt lat="13.35822" lon="74.74973">
        <ele>17.9</ele>
      </trkpt>
      <trkpt lat="13.35837" lon="74.74969">
        <ele>17.9</ele>
      </trkpt>
      <trkpt lat="13.3585" lon="74.74968">
        <ele>18.1</ele>
      </trkpt>
      <trkpt lat="13.35862" lon="74.74968">
        <ele>18.3</ele>
      </trkpt>
      <trkpt lat="13.35877" lon="74.74968">
        <ele>18.5</ele>
      </trkpt>
      <trkpt lat="13.35901" lon="74.7497099">
        <ele>19.0</ele>
      </trkpt>
      <trkpt lat="13.35923" lon="74.74974">
        <ele>19.4</ele>
      </trkpt>
      <trkpt lat="13.35937" lon="74.74976">
        <ele>19.5</ele>
      </trkpt>
      <trkpt lat="13.35992" lon="74.74984">
        <ele>19.7</ele>
      </trkpt>
      <trkpt lat="13.36077" lon="74.7499799">
        <ele>15.4</ele>
      </trkpt>
      <trkpt lat="13.36147" lon="74.75008">
        <ele>15.0</ele>
      </trkpt>
      <trkpt lat="13.3616" lon="74.75009">
        <ele>15.0</ele>
      </trkpt>
      <trkpt lat="13.36171" lon="74.7501">
        <ele>15.4</ele>
      </trkpt>
      <trkpt lat="13.36196" lon="74.75005">
        <ele>17.8</ele>
      </trkpt>
      <trkpt lat="13.36206" lon="74.75002">
        <ele>18.8</ele>
      </trkpt>
      <trkpt lat="13.36211" lon="74.74999">
        <ele>19.2</ele>
      </trkpt>
      <trkpt lat="13.36219" lon="74.74993">
        <ele>19.9</ele>
      </trkpt>
      <trkpt lat="13.36224" lon="74.74987">
        <ele>20.2</ele>
      </trkpt>
      <trkpt lat="13.3623" lon="74.74978">
        <ele>20.4</ele>
      </trkpt>
      <trkpt lat="13.36234" lon="74.74974">
        <ele>20.6</ele>
      </trkpt>
      <trkpt lat="13.36238" lon="74.74972">
        <ele>20.8</ele>
      </trkpt>
      <trkpt lat="13.36248" lon="74.74966">
        <ele>21.2</ele>
      </trkpt>
      <trkpt lat="13.36277" lon="74.74956">
        <ele>21.5</ele>
      </trkpt>
      <trkpt lat="13.36288" lon="74.7495299">
        <ele>21.7</ele>
      </trkpt>
      <trkpt lat="13.36292" lon="74.74951">
        <ele>21.7</ele>
      </trkpt>
      <trkpt lat="13.36306" lon="74.74943">
        <ele>21.6</ele>
      </trkpt>
      <trkpt lat="13.36311" lon="74.74942">
        <ele>21.7</ele>
      </trkpt>
      <trkpt lat="13.36336" lon="74.74932">
        <ele>21.9</ele>
      </trkpt>
      <trkpt lat="13.36359" lon="74.74923">
        <ele>23.2</ele>
      </trkpt>
      <trkpt lat="13.36366" lon="74.7492">
        <ele>23.5</ele>
      </trkpt>
      <trkpt lat="13.36394" lon="74.74908">
        <ele>25.2</ele>
      </trkpt>
      <trkpt lat="13.36396" lon="74.74907">
        <ele>25.3</ele>
      </trkpt>
      <trkpt lat="13.3643" lon="74.74892">
        <ele>26.5</ele>
      </trkpt>
      <trkpt lat="13.36453" lon="74.7488599">
        <ele>26.9</ele>
      </trkpt>
      <trkpt lat="13.36568" lon="74.74853">
        <ele>25.5</ele>
      </trkpt>
      <trkpt lat="13.36579" lon="74.74848">
        <ele>25.1</ele>
      </trkpt>
      <trkpt lat="13.3658" lon="74.74848">
        <ele>25.1</ele>
      </trkpt>
      <trkpt lat="13.36608" lon="74.74837">
        <ele>25.9</ele>
      </trkpt>
      <trkpt lat="13.36643" lon="74.74822">
        <ele>27.1</ele>
      </trkpt>
      <trkpt lat="13.36659" lon="74.74815">
        <ele>27.7</ele>
      </trkpt>
      <trkpt lat="13.3668099" lon="74.74806">
        <ele>28.6</ele>
      </trkpt>
      <trkpt lat="13.36708" lon="74.74794">
        <ele>29.5</ele>
      </trkpt>
      <trkpt lat="13.36733" lon="74.74785">
        <ele>30.3</ele>
      </trkpt>
      <trkpt lat="13.36745" lon="74.7478">
        <ele>30.6</ele>
      </trkpt>
      <trkpt lat="13.36758" lon="74.74775">
        <ele>30.9</ele>
      </trkpt>
      <trkpt lat="13.36771" lon="74.74771">
        <ele>31.3</ele>
      </trkpt>
      <trkpt lat="13.36787" lon="74.74767">
        <ele>31.8</ele>
      </trkpt>
      <trkpt lat="13.36816" lon="74.74764">
        <ele>32.8</ele>
      </trkpt>
      <trkpt lat="13.36839" lon="74.74763">
        <ele>33.7</ele>
      </trkpt>
      <trkpt lat="13.3689199" lon="74.74762">
        <ele>36.3</ele>
      </trkpt>
      <trkpt lat="13.36931" lon="74.74757">
        <ele>37.9</ele>
      </trkpt>
      <trkpt lat="13.36946" lon="74.74754">
        <ele>38.2</ele>
      </trkpt>
      <trkpt lat="13.36967" lon="74.7475">
        <ele>38.6</ele>
      </trkpt>
      <trkpt lat="13.36978" lon="74.74747">
        <ele>38.7</ele>
      </trkpt>
      <trkpt lat="13.36978" lon="74.74747">
        <ele>38.7</ele>
      </trkpt>
      <trkpt lat="13.3698599" lon="74.74746">
        <ele>38.8</ele>
      </trkpt>
      <trkpt lat="13.36998" lon="74.74744">
        <ele>39.0</ele>
      </trkpt>
      <trkpt lat="13.37011" lon="74.7474">
        <ele>38.7</ele>
      </trkpt>
      <trkpt lat="13.37031" lon="74.74733">
        <ele>38.3</ele>
      </trkpt>
      <trkpt lat="13.37053" lon="74.74722">
        <ele>37.7</ele>
      </trkpt>
      <trkpt lat="13.37076" lon="74.74711">
        <ele>37.2</ele>
      </trkpt>
      <trkpt lat="13.37095" lon="74.747">
        <ele>36.9</ele>
      </trkpt>
      <trkpt lat="13.37129" lon="74.74675">
        <ele>36.9</ele>
      </trkpt>
      <trkpt lat="13.37175" lon="74.74639">
        <ele>36.8</ele>
      </trkpt>
      <trkpt lat="13.37184" lon="74.7463099">
        <ele>36.8</ele>
      </trkpt>
      <trkpt lat="13.37184" lon="74.7463099">
        <ele>36.8</ele>
      </trkpt>
      <trkpt lat="13.37176" lon="74.74617">
        <ele>36.6</ele>
      </trkpt>
      <trkpt lat="13.3716899" lon="74.74609">
        <ele>36.4</ele>
      </trkpt>
      <trkpt lat="13.37164" lon="74.74606">
        <ele>36.2</ele>
      </trkpt>
      <trkpt lat="13.37161" lon="74.74603">
        <ele>36.1</ele>
      </trkpt>
      <trkpt lat="13.3715" lon="74.74597">
        <ele>35.8</ele>
      </trkpt>
      <trkpt lat="13.3715" lon="74.74597">
        <ele>35.8</ele>
      </trkpt>
      <trkpt lat="13.37114" lon="74.74598">
        <ele>35.1</ele>
      </trkpt>
      <trkpt lat="13.37074" lon="74.74597">
        <ele>34.7</ele>
      </trkpt>
      <trkpt lat="13.37052" lon="74.74596">
        <ele>35.2</ele>
      </trkpt>
      <trkpt lat="13.37009" lon="74.74591">
        <ele>36.1</ele>
      </trkpt>
      <trkpt lat="13.36944" lon="74.7457699">
        <ele>35.0</ele>
      </trkpt>
      <trkpt lat="13.3687" lon="74.74558">
        <ele>35.0</ele>
      </trkpt>
      <trkpt lat="13.36824" lon="74.74546">
        <ele>35.1</ele>
      </trkpt>
      <trkpt lat="13.36805" lon="74.7454">
        <ele>34.6</ele>
      </trkpt>
      <trkpt lat="13.36744" lon="74.7452">
        <ele>33.8</ele>
      </trkpt>
      <trkpt lat="13.36723" lon="74.74513">
        <ele>33.3</ele>
      </trkpt>
      <trkpt lat="13.36668" lon="74.74499">
        <ele>32.0</ele>
      </trkpt>
      <trkpt lat="13.36601" lon="74.74479">
        <ele>30.7</ele>
      </trkpt>
      <trkpt lat="13.36549" lon="74.7446499">
        <ele>30.3</ele>
      </trkpt>
      <trkpt lat="13.3652599" lon="74.74459">
        <ele>30.3</ele>
      </trkpt>
      <trkpt lat="13.36479" lon="74.74446">
        <ele>30.2</ele>
      </trkpt>
      <trkpt lat="13.3641" lon="74.74428">
        <ele>29.2</ele>
      </trkpt>
      <trkpt lat="13.36396" lon="74.74424">
        <ele>29.5</ele>
      </trkpt>
      <trkpt lat="13.36339" lon="74.74409">
        <ele>30.6</ele>
      </trkpt>
      <trkpt lat="13.36337" lon="74.74408">
        <ele>30.6</ele>
      </trkpt>
      <trkpt lat="13.3627" lon="74.7439">
        <ele>30.3</ele>
      </trkpt>
      <trkpt lat="13.3622099" lon="74.74376">
        <ele>30.2</ele>
      </trkpt>
      <trkpt lat="13.3621" lon="74.74372">
        <ele>30.3</ele>
      </trkpt>
      <trkpt lat="13.36183" lon="74.74361">
        <ele>30.7</ele>
      </trkpt>
      <trkpt lat="13.36177" lon="74.74358">
        <ele>30.9</ele>
      </trkpt>
      <trkpt lat="13.36173" lon="74.74357">
        <ele>31.0</ele>
      </trkpt>
      <trkpt lat="13.36169" lon="74.74354">
        <ele>31.2</ele>
      </trkpt>
      <trkpt lat="13.36164" lon="74.74352">
        <ele>31.3</ele>
      </trkpt>
      <trkpt lat="13.36117" lon="74.74325">
        <ele>31.4</ele>
      </trkpt>
      <trkpt lat="13.36093" lon="74.74311">
        <ele>31.3</ele>
      </trkpt>
      <trkpt lat="13.36063" lon="74.7429499">
        <ele>32.1</ele>
      </trkpt>
      <trkpt lat="13.36053" lon="74.7429">
        <ele>32.4</ele>
      </trkpt>
      <trkpt lat="13.3600999" lon="74.74267">
        <ele>34.3</ele>
      </trkpt>
      <trkpt lat="13.35966" lon="74.74244">
        <ele>32.9</ele>
      </trkpt>
      <trkpt lat="13.35913" lon="74.74215">
        <ele>29.7</ele>
      </trkpt>
      <trkpt lat="13.35844" lon="74.74176">
        <ele>25.4</ele>
      </trkpt>
      <trkpt lat="13.35769" lon="74.74136">
        <ele>21.4</ele>
      </trkpt>
      <trkpt lat="13.35715" lon="74.74104">
        <ele>19.0</ele>
      </trkpt>
      <trkpt lat="13.35688" lon="74.74092">
        <ele>17.9</ele>
      </trkpt>
      <trkpt lat="13.35646" lon="74.74068">
        <ele>17.2</ele>
      </trkpt>
      <trkpt lat="13.35604" lon="74.74042">
        <ele>16.5</ele>
      </trkpt>
      <trkpt lat="13.35588" lon="74.74034">
        <ele>15.9</ele>
      </trkpt>
      <trkpt lat="13.35575" lon="74.74028">
        <ele>15.7</ele>
      </trkpt>
      <trkpt lat="13.3553" lon="74.74003">
        <ele>14.5</ele>
      </trkpt>
      <trkpt lat="13.35521" lon="74.73998">
        <ele>14.2</ele>
      </trkpt>
      <trkpt lat="13.35479" lon="74.73975">
        <ele>13.4</ele>
      </trkpt>
      <trkpt lat="13.3546099" lon="74.73964">
        <ele>13.0</ele>
      </trkpt>
      <trkpt lat="13.35437" lon="74.73952">
        <ele>12.3</ele>
      </trkpt>
      <trkpt lat="13.35393" lon="74.73927">
        <ele>10.6</ele>
      </trkpt>
      <trkpt lat="13.35342" lon="74.739">
        <ele>10.0</ele>
      </trkpt>
      <trkpt lat="13.35273" lon="74.73865">
        <ele>9.0</ele>
      </trkpt>
      <trkpt lat="13.35222" lon="74.73836">
        <ele>8.6</ele>
      </trkpt>
      <trkpt lat="13.3519" lon="74.7382">
        <ele>8.4</ele>
      </trkpt>
      <trkpt lat="13.3513" lon="74.73791">
        <ele>8.0</ele>
      </trkpt>
      <trkpt lat="13.35123" lon="74.73787">
        <ele>8.0</ele>
      </trkpt>
      <trkpt lat="13.35123" lon="74.73787">
        <ele>8.0</ele>
      </trkpt>
      <trkpt lat="13.35076" lon="74.73765">
        <ele>8.0</ele>
      </trkpt>
      <trkpt lat="13.35015" lon="74.73739">
        <ele>8.3</ele>
      </trkpt>
      <trkpt lat="13.34957" lon="74.73715">
        <ele>10.4</ele>
      </trkpt>
      <trkpt lat="13.34913" lon="74.73698">
        <ele>11.7</ele>
      </trkpt>
      <trkpt lat="13.34759" lon="74.73638">
        <ele>15.1</ele>
      </trkpt>
      <trkpt lat="13.34677" lon="74.7360999">
        <ele>16.4</ele>
      </trkpt>
      <trkpt lat="13.34677" lon="74.7360999">
        <ele>16.4</ele>
      </trkpt>
      <trkpt lat="13.34651" lon="74.7360099">
        <ele>16.4</ele>
      </trkpt>
      <trkpt lat="13.34644" lon="74.73598">
        <ele>16.4</ele>
      </trkpt>
      <trkpt lat="13.34602" lon="74.73587">
        <ele>16.7</ele>
      </trkpt>
      <trkpt lat="13.34568" lon="74.73581">
        <ele>17.5</ele>
      </trkpt>
      <trkpt lat="13.34526" lon="74.7358">
        <ele>18.9</ele>
      </trkpt>
      <trkpt lat="13.34513" lon="74.7358">
        <ele>19.4</ele>
      </trkpt>
      <trkpt lat="13.34495" lon="74.73581">
        <ele>19.9</ele>
      </trkpt>
      <trkpt lat="13.34486" lon="74.73582">
        <ele>19.9</ele>
      </trkpt>
      <trkpt lat="13.34421" lon="74.73595">
        <ele>20.7</ele>
      </trkpt>
      <trkpt lat="13.34386" lon="74.736">
        <ele>20.6</ele>
      </trkpt>
      <trkpt lat="13.34369" lon="74.73602">
        <ele>20.5</ele>
      </trkpt>
      <trkpt lat="13.3436" lon="74.73604">
        <ele>20.6</ele>
      </trkpt>
      <trkpt lat="13.34331" lon="74.73609">
        <ele>20.5</ele>
      </trkpt>
      <trkpt lat="13.34331" lon="74.73609">
        <ele>20.5</ele>
      </trkpt>
      <trkpt lat="13.34257" lon="74.7361899">
        <ele>19.8</ele>
      </trkpt>
      <trkpt lat="13.34226" lon="74.73622">
        <ele>19.3</ele>
      </trkpt>
      <trkpt lat="13.34193" lon="74.73627">
        <ele>18.7</ele>
      </trkpt>
      <trkpt lat="13.34164" lon="74.7363">
        <ele>18.2</ele>
      </trkpt>
      <trkpt lat="13.34142" lon="74.73633">
        <ele>18.4</ele>
      </trkpt>
      <trkpt lat="13.34117" lon="74.73635">
        <ele>18.4</ele>
      </trkpt>
      <trkpt lat="13.3409" lon="74.73638">
        <ele>18.4</ele>
      </trkpt>
      <trkpt lat="13.34067" lon="74.73641">
        <ele>18.5</ele>
      </trkpt>
      <trkpt lat="13.34039" lon="74.73644">
        <ele>18.8</ele>
      </trkpt>
      <trkpt lat="13.34008" lon="74.73648">
        <ele>19.1</ele>
      </trkpt>
      <trkpt lat="13.33978" lon="74.7365">
        <ele>20.4</ele>
      </trkpt>
      <trkpt lat="13.33948" lon="74.73652">
        <ele>22.1</ele>
      </trkpt>
      <trkpt lat="13.33926" lon="74.73654">
        <ele>23.3</ele>
      </trkpt>
      <trkpt lat="13.33905" lon="74.73656">
        <ele>24.1</ele>
      </trkpt>
      <trkpt lat="13.33882" lon="74.73659">
        <ele>24.5</ele>
      </trkpt>
      <trkpt lat="13.33854" lon="74.73661">
        <ele>24.9</ele>
      </trkpt>
      <trkpt lat="13.3382" lon="74.73664">
        <ele>25.3</ele>
      </trkpt>
      <trkpt lat="13.33789" lon="74.73667">
        <ele>25.5</ele>
      </trkpt>
      <trkpt lat="13.3375" lon="74.73668">
        <ele>26.1</ele>
      </trkpt>
      <trkpt lat="13.33726" lon="74.73669">
        <ele>25.2</ele>
      </trkpt>
      <trkpt lat="13.337" lon="74.7367">
        <ele>24.3</ele>
      </trkpt>
      <trkpt lat="13.33697" lon="74.7367">
        <ele>24.2</ele>
      </trkpt>
      <trkpt lat="13.337" lon="74.7367">
        <ele>24.3</ele>
      </trkpt>
      <trkpt lat="13.337" lon="74.7367">
        <ele>24.3</ele>
      </trkpt>
      <trkpt lat="13.33699" lon="74.73677">
        <ele>24.6</ele>
      </trkpt>
      <trkpt lat="13.33697" lon="74.73706">
        <ele>25.7</ele>
      </trkpt>
      <trkpt lat="13.33695" lon="74.73737">
        <ele>26.8</ele>
      </trkpt>
      <trkpt lat="13.33686" lon="74.73922">
        <ele>26.5</ele>
      </trkpt>
      <trkpt lat="13.33686" lon="74.7392799">
        <ele>26.6</ele>
      </trkpt>
      <trkpt lat="13.33682" lon="74.73944">
        <ele>26.7</ele>
      </trkpt>
      <trkpt lat="13.33674" lon="74.73968">
        <ele>26.8</ele>
      </trkpt>
      <trkpt lat="13.33671" lon="74.73976">
        <ele>26.8</ele>
      </trkpt>
      <trkpt lat="13.3367" lon="74.73979">
        <ele>26.8</ele>
      </trkpt>
      <trkpt lat="13.33667" lon="74.73982">
        <ele>26.8</ele>
      </trkpt>
      <trkpt lat="13.3366399" lon="74.7398599">
        <ele>26.8</ele>
      </trkpt>
      <trkpt lat="13.33663" lon="74.73987">
        <ele>26.7</ele>
      </trkpt>
      <trkpt lat="13.33663" lon="74.73987">
        <ele>26.7</ele>
      </trkpt>
      <trkpt lat="13.33661" lon="74.73988">
        <ele>26.7</ele>
      </trkpt>
      <trkpt lat="13.3366" lon="74.73988">
        <ele>26.7</ele>
      </trkpt>
      <trkpt lat="13.33659" lon="74.73988">
        <ele>26.7</ele>
      </trkpt>
      <trkpt lat="13.33658" lon="74.73988">
        <ele>26.6</ele>
      </trkpt>
      <trkpt lat="13.33658" lon="74.73989">
        <ele>26.6</ele>
      </trkpt>
      <trkpt lat="13.33657" lon="74.73989">
        <ele>26.6</ele>
      </trkpt>
      <trkpt lat="13.33656" lon="74.73989">
        <ele>26.6</ele>
      </trkpt>
      <trkpt lat="13.33656" lon="74.7399">
        <ele>26.6</ele>
      </trkpt>
      <trkpt lat="13.33655" lon="74.7399">
        <ele>26.6</ele>
      </trkpt>
      <trkpt lat="13.33655" lon="74.73991">
        <ele>26.6</ele>
      </trkpt>
      <trkpt lat="13.33654" lon="74.73991">
        <ele>26.6</ele>
      </trkpt>
      <trkpt lat="13.33654" lon="74.73992">
        <ele>26.6</ele>
      </trkpt>
      <trkpt lat="13.33653" lon="74.73993">
        <ele>26.6</ele>
      </trkpt>
      <trkpt lat="13.33653" lon="74.73994">
        <ele>26.6</ele>
      </trkpt>
      <trkpt lat="13.33653" lon="74.7399499">
        <ele>26.6</ele>
      </trkpt>
      <trkpt lat="13.33652" lon="74.7399499">
        <ele>26.6</ele>
      </trkpt>
      <trkpt lat="13.33652" lon="74.73996">
        <ele>26.6</ele>
      </trkpt>
      <trkpt lat="13.33652" lon="74.73997">
        <ele>26.6</ele>
      </trkpt>
      <trkpt lat="13.33652" lon="74.73998">
        <ele>26.6</ele>
      </trkpt>
      <trkpt lat="13.33652" lon="74.73999">
        <ele>26.6</ele>
      </trkpt>
      <trkpt lat="13.33652" lon="74.74001">
        <ele>26.7</ele>
      </trkpt>
      <trkpt lat="13.33649" lon="74.7400399">
        <ele>26.8</ele>
      </trkpt>
      <trkpt lat="13.33649" lon="74.7400399">
        <ele>26.8</ele>
      </trkpt>
      <trkpt lat="13.33624" lon="74.7401">
        <ele>26.6</ele>
      </trkpt>
      <trkpt lat="13.33606" lon="74.7401299">
        <ele>26.4</ele>
      </trkpt>
      <trkpt lat="13.33599" lon="74.74014">
        <ele>26.4</ele>
      </trkpt>
      <trkpt lat="13.3354199" lon="74.74019">
        <ele>25.6</ele>
      </trkpt>
      <trkpt lat="13.33538" lon="74.7402">
        <ele>25.6</ele>
      </trkpt>
      <trkpt lat="13.33514" lon="74.74018">
        <ele>25.1</ele>
      </trkpt>
      <trkpt lat="13.335" lon="74.74016">
        <ele>24.8</ele>
      </trkpt>
      <trkpt lat="13.33483" lon="74.7401">
        <ele>24.4</ele>
      </trkpt>
      <trkpt lat="13.33477" lon="74.74008">
        <ele>24.3</ele>
      </trkpt>
      <trkpt lat="13.33471" lon="74.7400399">
        <ele>24.1</ele>
      </trkpt>
      <trkpt lat="13.33457" lon="74.73994">
        <ele>23.9</ele>
      </trkpt>
      <trkpt lat="13.33433" lon="74.73985">
        <ele>23.8</ele>
      </trkpt>
      <trkpt lat="13.33421" lon="74.73982">
        <ele>23.8</ele>
      </trkpt>
      <trkpt lat="13.33412" lon="74.7398">
        <ele>23.7</ele>
      </trkpt>
      <trkpt lat="13.33382" lon="74.73976">
        <ele>23.6</ele>
      </trkpt>
      <trkpt lat="13.33335" lon="74.73972">
        <ele>23.3</ele>
      </trkpt>
      <trkpt lat="13.33306" lon="74.7397">
        <ele>22.7</ele>
      </trkpt>
      <trkpt lat="13.33295" lon="74.7397">
        <ele>22.5</ele>
      </trkpt>
      <trkpt lat="13.33273" lon="74.73968">
        <ele>22.1</ele>
      </trkpt>
      <trkpt lat="13.3323699" lon="74.73968">
        <ele>21.4</ele>
      </trkpt>
      <trkpt lat="13.33208" lon="74.7397">
        <ele>21.0</ele>
      </trkpt>
      <trkpt lat="13.33175" lon="74.73972">
        <ele>20.5</ele>
      </trkpt>
      <trkpt lat="13.3317" lon="74.73973">
        <ele>20.4</ele>
      </trkpt>
      <trkpt lat="13.3316" lon="74.73974">
        <ele>20.4</ele>
      </trkpt>
      <trkpt lat="13.3316" lon="74.73974">
        <ele>20.4</ele>
      </trkpt>
      <trkpt lat="13.33058" lon="74.73987">
        <ele>20.9</ele>
      </trkpt>
      <trkpt lat="13.3298" lon="74.73992">
        <ele>20.0</ele>
      </trkpt>
      <trkpt lat="13.32949" lon="74.73991">
        <ele>20.1</ele>
      </trkpt>
      <trkpt lat="13.32939" lon="74.73991">
        <ele>20.1</ele>
      </trkpt>
      <trkpt lat="13.32921" lon="74.73991">
        <ele>20.1</ele>
      </trkpt>
      <trkpt lat="13.32841" lon="74.7399">
        <ele>21.7</ele>
      </trkpt>
      <trkpt lat="13.32785" lon="74.7399">
        <ele>21.9</ele>
      </trkpt>
      <trkpt lat="13.32774" lon="74.73988">
        <ele>22.0</ele>
      </trkpt>
      <trkpt lat="13.32713" lon="74.73988">
        <ele>23.2</ele>
      </trkpt>
      <trkpt lat="13.32556" lon="74.73987">
        <ele>25.4</ele>
      </trkpt>
      <trkpt lat="13.32516" lon="74.73987">
        <ele>25.1</ele>
      </trkpt>
      <trkpt lat="13.32495" lon="74.73989">
        <ele>25.1</ele>
      </trkpt>
      <trkpt lat="13.32495" lon="74.73989">
        <ele>25.1</ele>
      </trkpt>
      <trkpt lat="13.32495" lon="74.74007">
        <ele>25.0</ele>
      </trkpt>
      <trkpt lat="13.32495" lon="74.74007">
        <ele>25.0</ele>
      </trkpt>
      <trkpt lat="13.32496" lon="74.7403">
        <ele>24.7</ele>
      </trkpt>
      <trkpt lat="13.32497" lon="74.74037">
        <ele>24.6</ele>
      </trkpt>
      <trkpt lat="13.32497" lon="74.74042">
        <ele>24.5</ele>
      </trkpt>
      <trkpt lat="13.32498" lon="74.74048">
        <ele>24.4</ele>
      </trkpt>
      <trkpt lat="13.32499" lon="74.74053">
        <ele>24.4</ele>
      </trkpt>
      <trkpt lat="13.32502" lon="74.74057">
        <ele>24.3</ele>
      </trkpt>
      <trkpt lat="13.32507" lon="74.74062">
        <ele>24.3</ele>
      </trkpt>
      <trkpt lat="13.32511" lon="74.74065">
        <ele>24.2</ele>
      </trkpt>
      <trkpt lat="13.32536" lon="74.74073">
        <ele>24.2</ele>
      </trkpt>
      <trkpt lat="13.32568" lon="74.74084">
        <ele>24.0</ele>
      </trkpt>
      <trkpt lat="13.326" lon="74.74095">
        <ele>23.9</ele>
      </trkpt>
      <trkpt lat="13.32662" lon="74.74139">
        <ele>22.1</ele>
      </trkpt>
      <trkpt lat="13.32696" lon="74.74167">
        <ele>22.1</ele>
      </trkpt>
      <trkpt lat="13.32792" lon="74.74248">
        <ele>21.5</ele>
      </trkpt>
      <trkpt lat="13.32868" lon="74.7431299">
        <ele>22.5</ele>
      </trkpt>
      <trkpt lat="13.32878" lon="74.74323">
        <ele>22.5</ele>
      </trkpt>
      <trkpt lat="13.32884" lon="74.7433">
        <ele>22.4</ele>
      </trkpt>
      <trkpt lat="13.32907" lon="74.74361">
        <ele>22.2</ele>
      </trkpt>
      <trkpt lat="13.32929" lon="74.74393">
        <ele>22.2</ele>
      </trkpt>
      <trkpt lat="13.32941" lon="74.74415">
        <ele>22.3</ele>
      </trkpt>
      <trkpt lat="13.32953" lon="74.74439">
        <ele>23.2</ele>
      </trkpt>
      <trkpt lat="13.32968" lon="74.7446499">
        <ele>24.4</ele>
      </trkpt>
      <trkpt lat="13.3297899" lon="74.74484">
        <ele>25.2</ele>
      </trkpt>
      <trkpt lat="13.32992" lon="74.7450099">
        <ele>25.9</ele>
      </trkpt>
      <trkpt lat="13.33025" lon="74.74534">
        <ele>26.5</ele>
      </trkpt>
      <trkpt lat="13.33064" lon="74.74572">
        <ele>27.5</ele>
      </trkpt>
      <trkpt lat="13.33085" lon="74.74594">
        <ele>28.0</ele>
      </trkpt>
      <trkpt lat="13.33114" lon="74.7462199">
        <ele>29.0</ele>
      </trkpt>
      <trkpt lat="13.33148" lon="74.74653">
        <ele>29.7</ele>
      </trkpt>
      <trkpt lat="13.33148" lon="74.74653">
        <ele>29.7</ele>
      </trkpt>
      <trkpt lat="13.33154" lon="74.74659">
        <ele>29.8</ele>
      </trkpt>
      <trkpt lat="13.3321799" lon="74.74714">
        <ele>31.9</ele>
      </trkpt>
      <trkpt lat="13.33258" lon="74.74747">
        <ele>33.1</ele>
      </trkpt>
      <trkpt lat="13.33328" lon="74.74805">
        <ele>34.0</ele>
      </trkpt>
      <trkpt lat="13.33346" lon="74.74823">
        <ele>34.3</ele>
      </trkpt>
      <trkpt lat="13.33347" lon="74.74823">
        <ele>34.3</ele>
      </trkpt>
      <trkpt lat="13.33348" lon="74.74823">
        <ele>34.4</ele>
      </trkpt>
      <trkpt lat="13.33349" lon="74.74823">
        <ele>34.4</ele>
      </trkpt>
      <trkpt lat="13.3335" lon="74.74823">
        <ele>34.4</ele>
      </trkpt>
      <trkpt lat="13.3335" lon="74.74824">
        <ele>34.4</ele>
      </trkpt>
      <trkpt lat="13.33351" lon="74.74824">
        <ele>34.4</ele>
      </trkpt>
      <trkpt lat="13.33352" lon="74.74825">
        <ele>34.4</ele>
      </trkpt>
      <trkpt lat="13.33352" lon="74.74826">
        <ele>34.4</ele>
      </trkpt>
      <trkpt lat="13.33353" lon="74.74826">
        <ele>34.5</ele>
      </trkpt>
      <trkpt lat="13.33353" lon="74.74827">
        <ele>34.5</ele>
      </trkpt>
      <trkpt lat="13.33353" lon="74.74828">
        <ele>34.5</ele>
      </trkpt>
      <trkpt lat="13.33354" lon="74.74829">
        <ele>34.5</ele>
      </trkpt>
      <trkpt lat="13.33389" lon="74.7485899">
        <ele>34.8</ele>
      </trkpt>
      <trkpt lat="13.3340099" lon="74.74869">
        <ele>34.7</ele>
      </trkpt>
      <trkpt lat="13.33429" lon="74.74893">
        <ele>33.9</ele>
      </trkpt>
      <trkpt lat="13.33455" lon="74.74916">
        <ele>33.0</ele>
      </trkpt>
      <trkpt lat="13.3347" lon="74.74924">
        <ele>32.8</ele>
      </trkpt>
      <trkpt lat="13.33482" lon="74.74932">
        <ele>32.6</ele>
      </trkpt>
      <trkpt lat="13.335" lon="74.74935">
        <ele>32.6</ele>
      </trkpt>
      <trkpt lat="13.3352299" lon="74.7494">
        <ele>32.2</ele>
      </trkpt>
      <trkpt lat="13.33568" lon="74.7495">
        <ele>31.2</ele>
      </trkpt>
      <trkpt lat="13.33599" lon="74.74956">
        <ele>30.8</ele>
      </trkpt>
      <trkpt lat="13.33609" lon="74.74957">
        <ele>30.9</ele>
      </trkpt>
      <trkpt lat="13.33609" lon="74.74957">
        <ele>30.9</ele>
      </trkpt>
      <trkpt lat="13.33622" lon="74.74954">
        <ele>31.2</ele>
      </trkpt>
      <trkpt lat="13.3363" lon="74.74949">
        <ele>31.5</ele>
      </trkpt>
      <trkpt lat="13.3366399" lon="74.74926">
        <ele>32.7</ele>
      </trkpt>
      <trkpt lat="13.33676" lon="74.74918">
        <ele>33.0</ele>
      </trkpt>
      <trkpt lat="13.33697" lon="74.74912">
        <ele>33.0</ele>
      </trkpt>
      <trkpt lat="13.33732" lon="74.74903">
        <ele>33.0</ele>
      </trkpt>
      <trkpt lat="13.33761" lon="74.74896">
        <ele>32.5</ele>
      </trkpt>
      <trkpt lat="13.33765" lon="74.7489499">
        <ele>32.3</ele>
      </trkpt>
      <trkpt lat="13.3382799" lon="74.74884">
        <ele>29.6</ele>
      </trkpt>
      <trkpt lat="13.33836" lon="74.74882">
        <ele>29.4</ele>
      </trkpt>
      <trkpt lat="13.33892" lon="74.74872">
        <ele>28.8</ele>
      </trkpt>
      <trkpt lat="13.3389399" lon="74.74871">
        <ele>28.8</ele>
      </trkpt>
      <trkpt lat="13.33906" lon="74.74869">
        <ele>28.6</ele>
      </trkpt>
      <trkpt lat="13.33916" lon="74.74866">
        <ele>28.4</ele>
      </trkpt>
      <trkpt lat="13.33928" lon="74.74862">
        <ele>28.1</ele>
      </trkpt>
      <trkpt lat="13.33931" lon="74.74861">
        <ele>28.0</ele>
      </trkpt>
      <trkpt lat="13.33973" lon="74.74849">
        <ele>26.8</ele>
      </trkpt>
      <trkpt lat="13.33995" lon="74.74842">
        <ele>26.2</ele>
      </trkpt>
      <trkpt lat="13.34019" lon="74.74831">
        <ele>25.9</ele>
      </trkpt>
      <trkpt lat="13.34022" lon="74.7483">
        <ele>25.9</ele>
      </trkpt>
      <trkpt lat="13.34025" lon="74.74829">
        <ele>25.8</ele>
      </trkpt>
      <trkpt lat="13.3404399" lon="74.74811">
        <ele>25.2</ele>
      </trkpt>
      <trkpt lat="13.34099" lon="74.74777">
        <ele>23.7</ele>
      </trkpt>
      <trkpt lat="13.34103" lon="74.74775">
        <ele>23.5</ele>
      </trkpt>
      <trkpt lat="13.34134" lon="74.74754">
        <ele>22.5</ele>
      </trkpt>
      <trkpt lat="13.34139" lon="74.74751">
        <ele>22.4</ele>
      </trkpt>
      <trkpt lat="13.3415" lon="74.74745">
        <ele>22.3</ele>
      </trkpt>
      <trkpt lat="13.34167" lon="74.7473">
        <ele>22.5</ele>
      </trkpt>
      <trkpt lat="13.34205" lon="74.74702">
        <ele>22.8</ele>
      </trkpt>
      <trkpt lat="13.34267" lon="74.74688">
        <ele>22.0</ele>
      </trkpt>
      <trkpt lat="13.3432" lon="74.74675">
        <ele>21.8</ele>
      </trkpt>
      <trkpt lat="13.3434" lon="74.74668">
        <ele>21.6</ele>
      </trkpt>
      <trkpt lat="13.34359" lon="74.74665">
        <ele>20.7</ele>
      </trkpt>
      <trkpt lat="13.34392" lon="74.74661">
        <ele>19.1</ele>
      </trkpt>
      <trkpt lat="13.344" lon="74.7466">
        <ele>18.7</ele>
      </trkpt>
      <trkpt lat="13.344" lon="74.7466">
        <ele>18.7</ele>
      </trkpt>
      <trkpt lat="13.344" lon="74.74666">
        <ele>18.8</ele>
      </trkpt>
      <trkpt lat="13.344" lon="74.74675">
        <ele>18.6</ele>
      </trkpt>
      <trkpt lat="13.344" lon="74.74695">
        <ele>18.1</ele>
      </trkpt>
      <trkpt lat="13.34399" lon="74.7471">
        <ele>17.7</ele>
      </trkpt>
      <trkpt lat="13.34398" lon="74.74723">
        <ele>17.4</ele>
      </trkpt>
      <trkpt lat="13.34397" lon="74.74742">
        <ele>16.9</ele>
      </trkpt>
      <trkpt lat="13.34397" lon="74.74747">
        <ele>16.8</ele>
      </trkpt>
      <trkpt lat="13.3439599" lon="74.74755">
        <ele>16.7</ele>
      </trkpt>
      <trkpt lat="13.3439599" lon="74.74761">
        <ele>16.6</ele>
      </trkpt>
      <trkpt lat="13.34397" lon="74.74767">
        <ele>16.5</ele>
      </trkpt>
      <trkpt lat="13.34398" lon="74.74773">
        <ele>16.3</ele>
      </trkpt>
      <trkpt lat="13.34399" lon="74.74778">
        <ele>16.2</ele>
      </trkpt>
      <trkpt lat="13.34401" lon="74.74784">
        <ele>16.1</ele>
      </trkpt>
      <trkpt lat="13.34403" lon="74.74789">
        <ele>15.9</ele>
      </trkpt>
      <trkpt lat="13.34404" lon="74.74793">
        <ele>15.9</ele>
      </trkpt>
      <trkpt lat="13.34406" lon="74.74797">
        <ele>15.7</ele>
      </trkpt>
      <trkpt lat="13.34411" lon="74.74813">
        <ele>15.4</ele>
      </trkpt>
      <trkpt lat="13.34416" lon="74.74827">
        <ele>15.1</ele>
      </trkpt>
      <trkpt lat="13.34422" lon="74.74841">
        <ele>15.7</ele>
      </trkpt>
      <trkpt lat="13.3443" lon="74.7486">
        <ele>16.8</ele>
      </trkpt>
      <trkpt lat="13.34437" lon="74.74875">
        <ele>17.5</ele>
      </trkpt>
      <trkpt lat="13.34467" lon="74.74932">
        <ele>18.2</ele>
      </trkpt>
      <trkpt lat="13.34474" lon="74.74948">
        <ele>17.9</ele>
      </trkpt>
      <trkpt lat="13.34487" lon="74.74975">
        <ele>17.5</ele>
      </trkpt>
      <trkpt lat="13.34507" lon="74.75023">
        <ele>16.5</ele>
      </trkpt>
      <trkpt lat="13.34523" lon="74.75068">
        <ele>15.4</ele>
      </trkpt>
      <trkpt lat="13.3453199" lon="74.75098">
        <ele>15.2</ele>
      </trkpt>
      <trkpt lat="13.34536" lon="74.7510999">
        <ele>15.4</ele>
      </trkpt>
      <trkpt lat="13.34542" lon="74.75129">
        <ele>15.5</ele>
      </trkpt>
      <trkpt lat="13.34551" lon="74.75152">
        <ele>15.6</ele>
      </trkpt>
      <trkpt lat="13.34555" lon="74.75164">
        <ele>15.7</ele>
      </trkpt>
      <trkpt lat="13.3455999" lon="74.75176">
        <ele>15.5</ele>
      </trkpt>
      <trkpt lat="13.34561" lon="74.75187">
        <ele>15.4</ele>
      </trkpt>
      <trkpt lat="13.34562" lon="74.75191">
        <ele>15.3</ele>
      </trkpt>
      <trkpt lat="13.34562" lon="74.7519499">
        <ele>15.3</ele>
      </trkpt>
      <trkpt lat="13.34562" lon="74.75201">
        <ele>15.2</ele>
      </trkpt>
      <trkpt lat="13.34563" lon="74.75208">
        <ele>15.1</ele>
      </trkpt>
      <trkpt lat="13.34563" lon="74.75234">
        <ele>14.9</ele>
      </trkpt>
      <trkpt lat="13.34563" lon="74.7529">
        <ele>16.1</ele>
      </trkpt>
      <trkpt lat="13.34562" lon="74.75377">
        <ele>17.4</ele>
      </trkpt>
      <trkpt lat="13.34562" lon="74.75388">
        <ele>17.3</ele>
      </trkpt>
      <trkpt lat="13.34563" lon="74.75464">
        <ele>18.0</ele>
      </trkpt>
      <trkpt lat="13.34563" lon="74.75487">
        <ele>18.3</ele>
      </trkpt>
      <trkpt lat="13.34564" lon="74.7554">
        <ele>19.8</ele>
      </trkpt>
      <trkpt lat="13.3456499" lon="74.75569">
        <ele>20.7</ele>
      </trkpt>
      <trkpt lat="13.34566" lon="74.75616">
        <ele>21.8</ele>
      </trkpt>
      <trkpt lat="13.34571" lon="74.75639">
        <ele>22.3</ele>
      </trkpt>
      <trkpt lat="13.34592" lon="74.75698">
        <ele>22.7</ele>
      </trkpt>
      <trkpt lat="13.34596" lon="74.75713">
        <ele>22.5</ele>
      </trkpt>
      <trkpt lat="13.34602" lon="74.7574099">
        <ele>22.1</ele>
      </trkpt>
      <trkpt lat="13.3460699" lon="74.7577">
        <ele>22.0</ele>
      </trkpt>
      <trkpt lat="13.3461" lon="74.7579499">
        <ele>22.0</ele>
      </trkpt>
      <trkpt lat="13.34612" lon="74.7581">
        <ele>22.0</ele>
      </trkpt>
      <trkpt lat="13.34615" lon="74.75841">
        <ele>22.1</ele>
      </trkpt>
      <trkpt lat="13.34617" lon="74.75864">
        <ele>22.4</ele>
      </trkpt>
      <trkpt lat="13.34622" lon="74.75945">
        <ele>23.3</ele>
      </trkpt>
      <trkpt lat="13.34624" lon="74.75964">
        <ele>23.6</ele>
      </trkpt>
      <trkpt lat="13.34625" lon="74.75973">
        <ele>23.7</ele>
      </trkpt>
      <trkpt lat="13.3462599" lon="74.76005">
        <ele>24.0</ele>
      </trkpt>
      <trkpt lat="13.3462599" lon="74.7602">
        <ele>23.9</ele>
      </trkpt>
      <trkpt lat="13.3462599" lon="74.76025">
        <ele>23.9</ele>
      </trkpt>
      <trkpt lat="13.3463" lon="74.76079">
        <ele>23.7</ele>
      </trkpt>
      <trkpt lat="13.34631" lon="74.76103">
        <ele>24.2</ele>
      </trkpt>
      <trkpt lat="13.34632" lon="74.76139">
        <ele>25.1</ele>
      </trkpt>
      <trkpt lat="13.3463999" lon="74.76207">
        <ele>25.7</ele>
      </trkpt>
      <trkpt lat="13.34642" lon="74.76223">
        <ele>25.6</ele>
      </trkpt>
      <trkpt lat="13.34645" lon="74.76251">
        <ele>25.5</ele>
      </trkpt>
      <trkpt lat="13.34646" lon="74.76266">
        <ele>25.4</ele>
      </trkpt>
      <trkpt lat="13.34646" lon="74.76277">
        <ele>25.3</ele>
      </trkpt>
      <trkpt lat="13.34645" lon="74.76281">
        <ele>25.3</ele>
      </trkpt>
      <trkpt lat="13.34644" lon="74.76298">
        <ele>25.2</ele>
      </trkpt>
      <trkpt lat="13.34616" lon="74.76403">
        <ele>27.8</ele>
      </trkpt>
      <trkpt lat="13.34613" lon="74.7641">
        <ele>28.1</ele>
      </trkpt>
      <trkpt lat="13.34604" lon="74.76446">
        <ele>28.5</ele>
      </trkpt>
      <trkpt lat="13.34592" lon="74.76495">
        <ele>28.4</ele>
      </trkpt>
      <trkpt lat="13.34587" lon="74.7653">
        <ele>28.9</ele>
      </trkpt>
      <trkpt lat="13.34584" lon="74.76549">
        <ele>29.2</ele>
      </trkpt>
      <trkpt lat="13.34576" lon="74.7661399">
        <ele>31.4</ele>
      </trkpt>
      <trkpt lat="13.34567" lon="74.76696">
        <ele>34.3</ele>
      </trkpt>
      <trkpt lat="13.3455999" lon="74.76764">
        <ele>36.0</ele>
      </trkpt>
      <trkpt lat="13.34558" lon="74.76786">
        <ele>36.4</ele>
      </trkpt>
      <trkpt lat="13.34554" lon="74.76831">
        <ele>37.0</ele>
      </trkpt>
      <trkpt lat="13.34552" lon="74.76868">
        <ele>36.6</ele>
      </trkpt>
      <trkpt lat="13.34545" lon="74.76979">
        <ele>32.6</ele>
      </trkpt>
      <trkpt lat="13.34544" lon="74.77009">
        <ele>31.6</ele>
      </trkpt>
      <trkpt lat="13.3454599" lon="74.77032">
        <ele>32.0</ele>
      </trkpt>
      <trkpt lat="13.34552" lon="74.7706199">
        <ele>32.4</ele>
      </trkpt>
      <trkpt lat="13.34558" lon="74.77104">
        <ele>34.0</ele>
      </trkpt>
      <trkpt lat="13.34564" lon="74.77142">
        <ele>36.3</ele>
      </trkpt>
      <trkpt lat="13.34567" lon="74.7715599">
        <ele>37.1</ele>
      </trkpt>
      <trkpt lat="13.3457" lon="74.77168">
        <ele>37.7</ele>
      </trkpt>
      <trkpt lat="13.34576" lon="74.77181">
        <ele>37.9</ele>
      </trkpt>
      <trkpt lat="13.34582" lon="74.77197">
        <ele>38.2</ele>
      </trkpt>
      <trkpt lat="13.34589" lon="74.7721399">
        <ele>38.7</ele>
      </trkpt>
      <trkpt lat="13.34598" lon="74.7723">
        <ele>39.1</ele>
      </trkpt>
      <trkpt lat="13.34609" lon="74.77248">
        <ele>39.6</ele>
      </trkpt>
      <trkpt lat="13.34619" lon="74.77263">
        <ele>39.8</ele>
      </trkpt>
      <trkpt lat="13.34632" lon="74.77279">
        <ele>39.7</ele>
      </trkpt>
      <trkpt lat="13.34645" lon="74.77294">
        <ele>39.5</ele>
      </trkpt>
      <trkpt lat="13.34669" lon="74.7731699">
        <ele>39.0</ele>
      </trkpt>
      <trkpt lat="13.34681" lon="74.77331">
        <ele>39.2</ele>
      </trkpt>
      <trkpt lat="13.34693" lon="74.77345">
        <ele>38.8</ele>
      </trkpt>
      <trkpt lat="13.34705" lon="74.7736199">
        <ele>38.1</ele>
      </trkpt>
      <trkpt lat="13.34721" lon="74.77387">
        <ele>37.1</ele>
      </trkpt>
      <trkpt lat="13.34737" lon="74.77417">
        <ele>35.8</ele>
      </trkpt>
      <trkpt lat="13.34741" lon="74.77424">
        <ele>35.7</ele>
      </trkpt>
      <trkpt lat="13.34745" lon="74.77435">
        <ele>35.5</ele>
      </trkpt>
      <trkpt lat="13.34751" lon="74.77451">
        <ele>35.2</ele>
      </trkpt>
      <trkpt lat="13.34755" lon="74.77467">
        <ele>35.0</ele>
      </trkpt>
      <trkpt lat="13.34772" lon="74.7753199">
        <ele>35.2</ele>
      </trkpt>
      <trkpt lat="13.34788" lon="74.77596">
        <ele>36.8</ele>
      </trkpt>
      <trkpt lat="13.34791" lon="74.77606">
        <ele>37.4</ele>
      </trkpt>
      <trkpt lat="13.34791" lon="74.77607">
        <ele>37.5</ele>
      </trkpt>
      <trkpt lat="13.34799" lon="74.77639">
        <ele>39.1</ele>
      </trkpt>
      <trkpt lat="13.34806" lon="74.77663">
        <ele>40.2</ele>
      </trkpt>
      <trkpt lat="13.34811" lon="74.77686">
        <ele>40.6</ele>
      </trkpt>
      <trkpt lat="13.34817" lon="74.77722">
        <ele>41.1</ele>
      </trkpt>
      <trkpt lat="13.34825" lon="74.77785">
        <ele>43.0</ele>
      </trkpt>
      <trkpt lat="13.34827" lon="74.77795">
        <ele>43.4</ele>
      </trkpt>
      <trkpt lat="13.34832" lon="74.77847">
        <ele>45.6</ele>
      </trkpt>
      <trkpt lat="13.34835" lon="74.77877">
        <ele>47.0</ele>
      </trkpt>
      <trkpt lat="13.34838" lon="74.77902">
        <ele>48.2</ele>
      </trkpt>
      <trkpt lat="13.34842" lon="74.7794">
        <ele>51.2</ele>
      </trkpt>
      <trkpt lat="13.34848" lon="74.77998">
        <ele>56.8</ele>
      </trkpt>
      <trkpt lat="13.34849" lon="74.78004">
        <ele>57.3</ele>
      </trkpt>
      <trkpt lat="13.34861" lon="74.78118">
        <ele>64.1</ele>
      </trkpt>
      <trkpt lat="13.34862" lon="74.78136">
        <ele>65.4</ele>
      </trkpt>
      <trkpt lat="13.34863" lon="74.78146">
        <ele>65.9</ele>
      </trkpt>
      <trkpt lat="13.34863" lon="74.78157">
        <ele>66.8</ele>
      </trkpt>
      <trkpt lat="13.34864" lon="74.78173">
        <ele>67.3</ele>
      </trkpt>
      <trkpt lat="13.34862" lon="74.78184">
        <ele>67.9</ele>
      </trkpt>
      <trkpt lat="13.3486" lon="74.78194">
        <ele>68.3</ele>
      </trkpt>
      <trkpt lat="13.34856" lon="74.78205">
        <ele>69.2</ele>
      </trkpt>
      <trkpt lat="13.34854" lon="74.78211">
        <ele>69.5</ele>
      </trkpt>
      <trkpt lat="13.34848" lon="74.78218">
        <ele>70.5</ele>
      </trkpt>
      <trkpt lat="13.3484" lon="74.78228">
        <ele>71.7</ele>
      </trkpt>
      <trkpt lat="13.34832" lon="74.78234">
        <ele>72.7</ele>
      </trkpt>
      <trkpt lat="13.34828" lon="74.78238">
        <ele>73.2</ele>
      </trkpt>
      <trkpt lat="13.3482299" lon="74.78241">
        <ele>73.8</ele>
      </trkpt>
      <trkpt lat="13.34813" lon="74.78248">
        <ele>75.2</ele>
      </trkpt>
      <trkpt lat="13.3480399" lon="74.78256">
        <ele>76.7</ele>
      </trkpt>
      <trkpt lat="13.34796" lon="74.78262">
        <ele>78.1</ele>
      </trkpt>
      <trkpt lat="13.3478999" lon="74.78268">
        <ele>79.2</ele>
      </trkpt>
      <trkpt lat="13.34785" lon="74.78273">
        <ele>80.0</ele>
      </trkpt>
      <trkpt lat="13.34777" lon="74.78281">
        <ele>81.4</ele>
      </trkpt>
      <trkpt lat="13.3477" lon="74.7829">
        <ele>82.6</ele>
      </trkpt>
      <trkpt lat="13.34764" lon="74.78297">
        <ele>83.6</ele>
      </trkpt>
      <trkpt lat="13.34759" lon="74.78303">
        <ele>84.4</ele>
      </trkpt>
      <trkpt lat="13.34755" lon="74.7831099">
        <ele>85.0</ele>
      </trkpt>
      <trkpt lat="13.34751" lon="74.78319">
        <ele>85.7</ele>
      </trkpt>
      <trkpt lat="13.3474799" lon="74.78324">
        <ele>86.0</ele>
      </trkpt>
      <trkpt lat="13.34746" lon="74.7832899">
        <ele>86.1</ele>
      </trkpt>
      <trkpt lat="13.34744" lon="74.78335">
        <ele>86.3</ele>
      </trkpt>
      <trkpt lat="13.3474299" lon="74.7834">
        <ele>86.6</ele>
      </trkpt>
      <trkpt lat="13.34742" lon="74.78345">
        <ele>86.8</ele>
      </trkpt>
      <trkpt lat="13.34741" lon="74.7835">
        <ele>87.0</ele>
      </trkpt>
      <trkpt lat="13.34739" lon="74.7836">
        <ele>87.4</ele>
      </trkpt>
      <trkpt lat="13.34738" lon="74.78365">
        <ele>87.6</ele>
      </trkpt>
      <trkpt lat="13.34737" lon="74.78382">
        <ele>88.2</ele>
      </trkpt>
      <trkpt lat="13.34736" lon="74.78406">
        <ele>89.0</ele>
      </trkpt>
      <trkpt lat="13.34738" lon="74.78409">
        <ele>89.0</ele>
      </trkpt>
      <trkpt lat="13.34739" lon="74.78411">
        <ele>89.1</ele>
      </trkpt>
      <trkpt lat="13.3474" lon="74.78412">
        <ele>89.1</ele>
      </trkpt>
      <trkpt lat="13.3474" lon="74.78413">
        <ele>89.1</ele>
      </trkpt>
      <trkpt lat="13.3474" lon="74.7841399">
        <ele>89.2</ele>
      </trkpt>
      <trkpt lat="13.3474" lon="74.78415">
        <ele>89.2</ele>
      </trkpt>
      <trkpt lat="13.3474" lon="74.78418">
        <ele>89.3</ele>
      </trkpt>
      <trkpt lat="13.34749" lon="74.78428">
        <ele>89.7</ele>
      </trkpt>
      <trkpt lat="13.34752" lon="74.7843">
        <ele>89.8</ele>
      </trkpt>
      <trkpt lat="13.34772" lon="74.78448">
        <ele>90.7</ele>
      </trkpt>
      <trkpt lat="13.34813" lon="74.78482">
        <ele>91.3</ele>
      </trkpt>
      <trkpt lat="13.34827" lon="74.78494">
        <ele>91.1</ele>
      </trkpt>
      <trkpt lat="13.34855" lon="74.7851699">
        <ele>92.4</ele>
      </trkpt>
      <trkpt lat="13.34868" lon="74.78529">
        <ele>93.1</ele>
      </trkpt>
      <trkpt lat="13.3488" lon="74.78539">
        <ele>93.5</ele>
      </trkpt>
      <trkpt lat="13.34893" lon="74.78549">
        <ele>93.8</ele>
      </trkpt>
      <trkpt lat="13.34896" lon="74.78552">
        <ele>93.9</ele>
      </trkpt>
      <trkpt lat="13.34905" lon="74.78558">
        <ele>94.0</ele>
      </trkpt>
      <trkpt lat="13.34915" lon="74.78564">
        <ele>94.0</ele>
      </trkpt>
      <trkpt lat="13.34924" lon="74.78568">
        <ele>94.1</ele>
      </trkpt>
      <trkpt lat="13.3493" lon="74.7857">
        <ele>94.2</ele>
      </trkpt>
      <trkpt lat="13.34936" lon="74.78572">
        <ele>94.3</ele>
      </trkpt>
      <trkpt lat="13.3494" lon="74.78573">
        <ele>94.3</ele>
      </trkpt>
      <trkpt lat="13.3494" lon="74.78572">
        <ele>94.3</ele>
      </trkpt>
      <trkpt lat="13.34941" lon="74.78573">
        <ele>94.3</ele>
      </trkpt>
      <trkpt lat="13.34946" lon="74.78573">
        <ele>94.4</ele>
      </trkpt>
      <trkpt lat="13.34952" lon="74.78574">
        <ele>94.5</ele>
      </trkpt>
      <trkpt lat="13.3496" lon="74.78574">
        <ele>94.6</ele>
      </trkpt>
      <trkpt lat="13.34978" lon="74.78573">
        <ele>94.8</ele>
      </trkpt>
      <trkpt lat="13.35003" lon="74.78571">
        <ele>95.2</ele>
      </trkpt>
      <trkpt lat="13.35023" lon="74.7857">
        <ele>95.6</ele>
      </trkpt>
      <trkpt lat="13.3505299" lon="74.78569">
        <ele>96.2</ele>
      </trkpt>
      <trkpt lat="13.35076" lon="74.7857">
        <ele>96.7</ele>
      </trkpt>
      <trkpt lat="13.35089" lon="74.78572">
        <ele>96.9</ele>
      </trkpt>
      <trkpt lat="13.351" lon="74.7857499">
        <ele>97.1</ele>
      </trkpt>
      <trkpt lat="13.35108" lon="74.78578">
        <ele>97.2</ele>
      </trkpt>
      <trkpt lat="13.35116" lon="74.78582">
        <ele>97.4</ele>
      </trkpt>
      <trkpt lat="13.35124" lon="74.78586">
        <ele>97.6</ele>
      </trkpt>
      <trkpt lat="13.35129" lon="74.7859">
        <ele>97.7</ele>
      </trkpt>
      <trkpt lat="13.35148" lon="74.7860199">
        <ele>98.0</ele>
      </trkpt>
      <trkpt lat="13.35192" lon="74.78633">
        <ele>97.9</ele>
      </trkpt>
      <trkpt lat="13.35218" lon="74.78651">
        <ele>97.9</ele>
      </trkpt>
      <trkpt lat="13.35218" lon="74.78651">
        <ele>97.9</ele>
      </trkpt>
      <trkpt lat="13.35224" lon="74.78645">
        <ele>97.8</ele>
      </trkpt>
      <trkpt lat="13.35226" lon="74.78641">
        <ele>97.8</ele>
      </trkpt>
      <trkpt lat="13.35242" lon="74.78623">
        <ele>97.5</ele>
      </trkpt>
      <trkpt lat="13.3527" lon="74.78581">
        <ele>97.2</ele>
      </trkpt>
    </trkseg>
  </trk>
</gpx>
